^C:\USERS\USER\SOURCE\REPOS\PRACTICUM_SHOOTER\PRACTICUM_SHOOTER\TARGET.CPP
C:\PROGRAM FILES (X86)\MICROSOFT VISUAL STUDIO\2017\COMMUNITY\VC\TOOLS\MSVC\14.11.25503\INCLUDE\CSTDIO
C:\PROGRAM FILES (X86)\MICROSOFT VISUAL STUDIO\2017\COMMUNITY\VC\TOOLS\MSVC\14.11.25503\INCLUDE\YVALS.H
C:\PROGRAM FILES (X86)\MICROSOFT VISUAL STUDIO\2017\COMMUNITY\VC\TOOLS\MSVC\14.11.25503\INCLUDE\XKEYCHECK.H
C:\PROGRAM FILES (X86)\MICROSOFT VISUAL STUDIO\2017\COMMUNITY\VC\TOOLS\MSVC\14.11.25503\INCLUDE\CRTDEFS.H
C:\PROGRAM FILES (X86)\MICROSOFT VISUAL STUDIO\2017\COMMUNITY\VC\TOOLS\MSVC\14.11.25503\INCLUDE\VCRUNTIME.H
C:\PROGRAM FILES (X86)\MICROSOFT VISUAL STUDIO\2017\COMMUNITY\VC\TOOLS\MSVC\14.11.25503\INCLUDE\SAL.H
C:\PROGRAM FILES (X86)\MICROSOFT VISUAL STUDIO\2017\COMMUNITY\VC\TOOLS\MSVC\14.11.25503\INCLUDE\CONCURRENCYSAL.H
C:\PROGRAM FILES (X86)\MICROSOFT VISUAL STUDIO\2017\COMMUNITY\VC\TOOLS\MSVC\14.11.25503\INCLUDE\VADEFS.H
C:\PROGRAM FILES (X86)\WINDOWS KITS\10\INCLUDE\10.0.16299.0\UCRT\CORECRT.H
C:\PROGRAM FILES (X86)\MICROSOFT VISUAL STUDIO\2017\COMMUNITY\VC\TOOLS\MSVC\14.11.25503\INCLUDE\USE_ANSI.H
C:\PROGRAM FILES (X86)\WINDOWS KITS\10\INCLUDE\10.0.16299.0\UCRT\STDIO.H
C:\PROGRAM FILES (X86)\WINDOWS KITS\10\INCLUDE\10.0.16299.0\UCRT\CORECRT_WSTDIO.H
C:\PROGRAM FILES (X86)\WINDOWS KITS\10\INCLUDE\10.0.16299.0\UCRT\CORECRT_STDIO_CONFIG.H
C:\USERS\USER\SOURCE\REPOS\PRACTICUM_SHOOTER\PRACTICUM_SHOOTER\TARGET.HPP
C:\USERS\USER\SOURCE\REPOS\PRACTICUM_SHOOTER\PACKAGES\ALLEGRO.5.2.3.1\BUILD\NATIVE\INCLUDE\ALLEGRO5\ALLEGRO.H
C:\USERS\USER\SOURCE\REPOS\PRACTICUM_SHOOTER\PACKAGES\ALLEGRO.5.2.3.1\BUILD\NATIVE\INCLUDE\ALLEGRO5\BASE.H
C:\PROGRAM FILES (X86)\WINDOWS KITS\10\INCLUDE\10.0.16299.0\UCRT\ERRNO.H
C:\PROGRAM FILES (X86)\MICROSOFT VISUAL STUDIO\2017\COMMUNITY\VC\TOOLS\MSVC\14.11.25503\INCLUDE\LIMITS.H
C:\PROGRAM FILES (X86)\MICROSOFT VISUAL STUDIO\2017\COMMUNITY\VC\TOOLS\MSVC\14.11.25503\INCLUDE\STDARG.H
C:\PROGRAM FILES (X86)\WINDOWS KITS\10\INCLUDE\10.0.16299.0\UCRT\STDDEF.H
C:\PROGRAM FILES (X86)\WINDOWS KITS\10\INCLUDE\10.0.16299.0\UCRT\STDLIB.H
C:\PROGRAM FILES (X86)\WINDOWS KITS\10\INCLUDE\10.0.16299.0\UCRT\CORECRT_MALLOC.H
C:\PROGRAM FILES (X86)\WINDOWS KITS\10\INCLUDE\10.0.16299.0\UCRT\CORECRT_SEARCH.H
C:\PROGRAM FILES (X86)\WINDOWS KITS\10\INCLUDE\10.0.16299.0\UCRT\CORECRT_WSTDLIB.H
C:\PROGRAM FILES (X86)\WINDOWS KITS\10\INCLUDE\10.0.16299.0\UCRT\TIME.H
C:\PROGRAM FILES (X86)\WINDOWS KITS\10\INCLUDE\10.0.16299.0\UCRT\CORECRT_WTIME.H
C:\PROGRAM FILES (X86)\WINDOWS KITS\10\INCLUDE\10.0.16299.0\UCRT\STRING.H
C:\PROGRAM FILES (X86)\WINDOWS KITS\10\INCLUDE\10.0.16299.0\UCRT\CORECRT_MEMORY.H
C:\PROGRAM FILES (X86)\WINDOWS KITS\10\INCLUDE\10.0.16299.0\UCRT\CORECRT_MEMCPY_S.H
C:\PROGRAM FILES (X86)\MICROSOFT VISUAL STUDIO\2017\COMMUNITY\VC\TOOLS\MSVC\14.11.25503\INCLUDE\VCRUNTIME_STRING.H
C:\PROGRAM FILES (X86)\WINDOWS KITS\10\INCLUDE\10.0.16299.0\UCRT\CORECRT_WSTRING.H
C:\PROGRAM FILES (X86)\WINDOWS KITS\10\INCLUDE\10.0.16299.0\UCRT\SYS\TYPES.H
C:\USERS\USER\SOURCE\REPOS\PRACTICUM_SHOOTER\PACKAGES\ALLEGRO.5.2.3.1\BUILD\NATIVE\INCLUDE\ALLEGRO5\INTERNAL\ALCONFIG.H
C:\USERS\USER\SOURCE\REPOS\PRACTICUM_SHOOTER\PACKAGES\ALLEGRO.5.2.3.1\BUILD\NATIVE\INCLUDE\ALLEGRO5\PLATFORM\ALPLATF.H
C:\USERS\USER\SOURCE\REPOS\PRACTICUM_SHOOTER\PACKAGES\ALLEGRO.5.2.3.1\BUILD\NATIVE\INCLUDE\ALLEGRO5\PLATFORM\ALMSVC.H
C:\PROGRAM FILES (X86)\WINDOWS KITS\10\INCLUDE\10.0.16299.0\UCRT\IO.H
C:\PROGRAM FILES (X86)\WINDOWS KITS\10\INCLUDE\10.0.16299.0\UCRT\CORECRT_IO.H
C:\PROGRAM FILES (X86)\WINDOWS KITS\10\INCLUDE\10.0.16299.0\UCRT\CORECRT_SHARE.H
C:\PROGRAM FILES (X86)\WINDOWS KITS\10\INCLUDE\10.0.16299.0\UCRT\CORECRT_WIO.H
C:\PROGRAM FILES (X86)\WINDOWS KITS\10\INCLUDE\10.0.16299.0\UCRT\FCNTL.H
C:\PROGRAM FILES (X86)\WINDOWS KITS\10\INCLUDE\10.0.16299.0\UCRT\DIRECT.H
C:\PROGRAM FILES (X86)\WINDOWS KITS\10\INCLUDE\10.0.16299.0\UCRT\CORECRT_WDIRECT.H
C:\PROGRAM FILES (X86)\WINDOWS KITS\10\INCLUDE\10.0.16299.0\UCRT\MALLOC.H
C:\USERS\USER\SOURCE\REPOS\PRACTICUM_SHOOTER\PACKAGES\ALLEGRO.5.2.3.1\BUILD\NATIVE\INCLUDE\ALLEGRO5\PLATFORM\ASTDINT.H
C:\PROGRAM FILES (X86)\WINDOWS KITS\10\INCLUDE\10.0.16299.0\UCRT\INTTYPES.H
C:\PROGRAM FILES (X86)\MICROSOFT VISUAL STUDIO\2017\COMMUNITY\VC\TOOLS\MSVC\14.11.25503\INCLUDE\STDINT.H
C:\USERS\USER\SOURCE\REPOS\PRACTICUM_SHOOTER\PACKAGES\ALLEGRO.5.2.3.1\BUILD\NATIVE\INCLUDE\ALLEGRO5\PLATFORM\ASTDBOOL.H
C:\USERS\USER\SOURCE\REPOS\PRACTICUM_SHOOTER\PACKAGES\ALLEGRO.5.2.3.1\BUILD\NATIVE\INCLUDE\ALLEGRO5\ALTIME.H
C:\USERS\USER\SOURCE\REPOS\PRACTICUM_SHOOTER\PACKAGES\ALLEGRO.5.2.3.1\BUILD\NATIVE\INCLUDE\ALLEGRO5\BITMAP.H
C:\USERS\USER\SOURCE\REPOS\PRACTICUM_SHOOTER\PACKAGES\ALLEGRO.5.2.3.1\BUILD\NATIVE\INCLUDE\ALLEGRO5\COLOR.H
C:\USERS\USER\SOURCE\REPOS\PRACTICUM_SHOOTER\PACKAGES\ALLEGRO.5.2.3.1\BUILD\NATIVE\INCLUDE\ALLEGRO5\BITMAP_DRAW.H
C:\USERS\USER\SOURCE\REPOS\PRACTICUM_SHOOTER\PACKAGES\ALLEGRO.5.2.3.1\BUILD\NATIVE\INCLUDE\ALLEGRO5\BITMAP_IO.H
C:\USERS\USER\SOURCE\REPOS\PRACTICUM_SHOOTER\PACKAGES\ALLEGRO.5.2.3.1\BUILD\NATIVE\INCLUDE\ALLEGRO5\FILE.H
C:\USERS\USER\SOURCE\REPOS\PRACTICUM_SHOOTER\PACKAGES\ALLEGRO.5.2.3.1\BUILD\NATIVE\INCLUDE\ALLEGRO5\PATH.H
C:\USERS\USER\SOURCE\REPOS\PRACTICUM_SHOOTER\PACKAGES\ALLEGRO.5.2.3.1\BUILD\NATIVE\INCLUDE\ALLEGRO5\UTF8.H
C:\USERS\USER\SOURCE\REPOS\PRACTICUM_SHOOTER\PACKAGES\ALLEGRO.5.2.3.1\BUILD\NATIVE\INCLUDE\ALLEGRO5\BITMAP_LOCK.H
C:\USERS\USER\SOURCE\REPOS\PRACTICUM_SHOOTER\PACKAGES\ALLEGRO.5.2.3.1\BUILD\NATIVE\INCLUDE\ALLEGRO5\BLENDER.H
C:\USERS\USER\SOURCE\REPOS\PRACTICUM_SHOOTER\PACKAGES\ALLEGRO.5.2.3.1\BUILD\NATIVE\INCLUDE\ALLEGRO5\CLIPBOARD.H
C:\USERS\USER\SOURCE\REPOS\PRACTICUM_SHOOTER\PACKAGES\ALLEGRO.5.2.3.1\BUILD\NATIVE\INCLUDE\ALLEGRO5\DISPLAY.H
C:\USERS\USER\SOURCE\REPOS\PRACTICUM_SHOOTER\PACKAGES\ALLEGRO.5.2.3.1\BUILD\NATIVE\INCLUDE\ALLEGRO5\EVENTS.H
C:\USERS\USER\SOURCE\REPOS\PRACTICUM_SHOOTER\PACKAGES\ALLEGRO.5.2.3.1\BUILD\NATIVE\INCLUDE\ALLEGRO5\CONFIG.H
C:\USERS\USER\SOURCE\REPOS\PRACTICUM_SHOOTER\PACKAGES\ALLEGRO.5.2.3.1\BUILD\NATIVE\INCLUDE\ALLEGRO5\CPU.H
C:\USERS\USER\SOURCE\REPOS\PRACTICUM_SHOOTER\PACKAGES\ALLEGRO.5.2.3.1\BUILD\NATIVE\INCLUDE\ALLEGRO5\DEBUG.H
C:\PROGRAM FILES (X86)\WINDOWS KITS\10\INCLUDE\10.0.16299.0\UCRT\ASSERT.H
C:\USERS\USER\SOURCE\REPOS\PRACTICUM_SHOOTER\PACKAGES\ALLEGRO.5.2.3.1\BUILD\NATIVE\INCLUDE\ALLEGRO5\DRAWING.H
C:\USERS\USER\SOURCE\REPOS\PRACTICUM_SHOOTER\PACKAGES\ALLEGRO.5.2.3.1\BUILD\NATIVE\INCLUDE\ALLEGRO5\ERROR.H
C:\USERS\USER\SOURCE\REPOS\PRACTICUM_SHOOTER\PACKAGES\ALLEGRO.5.2.3.1\BUILD\NATIVE\INCLUDE\ALLEGRO5\FIXED.H
C:\USERS\USER\SOURCE\REPOS\PRACTICUM_SHOOTER\PACKAGES\ALLEGRO.5.2.3.1\BUILD\NATIVE\INCLUDE\ALLEGRO5\FMATHS.H
C:\USERS\USER\SOURCE\REPOS\PRACTICUM_SHOOTER\PACKAGES\ALLEGRO.5.2.3.1\BUILD\NATIVE\INCLUDE\ALLEGRO5\INLINE\FMATHS.INL
C:\USERS\USER\SOURCE\REPOS\PRACTICUM_SHOOTER\PACKAGES\ALLEGRO.5.2.3.1\BUILD\NATIVE\INCLUDE\ALLEGRO5\FSHOOK.H
C:\USERS\USER\SOURCE\REPOS\PRACTICUM_SHOOTER\PACKAGES\ALLEGRO.5.2.3.1\BUILD\NATIVE\INCLUDE\ALLEGRO5\FULLSCREEN_MODE.H
C:\USERS\USER\SOURCE\REPOS\PRACTICUM_SHOOTER\PACKAGES\ALLEGRO.5.2.3.1\BUILD\NATIVE\INCLUDE\ALLEGRO5\HAPTIC.H
C:\USERS\USER\SOURCE\REPOS\PRACTICUM_SHOOTER\PACKAGES\ALLEGRO.5.2.3.1\BUILD\NATIVE\INCLUDE\ALLEGRO5\JOYSTICK.H
C:\USERS\USER\SOURCE\REPOS\PRACTICUM_SHOOTER\PACKAGES\ALLEGRO.5.2.3.1\BUILD\NATIVE\INCLUDE\ALLEGRO5\KEYBOARD.H
C:\USERS\USER\SOURCE\REPOS\PRACTICUM_SHOOTER\PACKAGES\ALLEGRO.5.2.3.1\BUILD\NATIVE\INCLUDE\ALLEGRO5\KEYCODES.H
C:\USERS\USER\SOURCE\REPOS\PRACTICUM_SHOOTER\PACKAGES\ALLEGRO.5.2.3.1\BUILD\NATIVE\INCLUDE\ALLEGRO5\MOUSE.H
C:\USERS\USER\SOURCE\REPOS\PRACTICUM_SHOOTER\PACKAGES\ALLEGRO.5.2.3.1\BUILD\NATIVE\INCLUDE\ALLEGRO5\TOUCH_INPUT.H
C:\USERS\USER\SOURCE\REPOS\PRACTICUM_SHOOTER\PACKAGES\ALLEGRO.5.2.3.1\BUILD\NATIVE\INCLUDE\ALLEGRO5\MEMORY.H
C:\USERS\USER\SOURCE\REPOS\PRACTICUM_SHOOTER\PACKAGES\ALLEGRO.5.2.3.1\BUILD\NATIVE\INCLUDE\ALLEGRO5\MONITOR.H
C:\USERS\USER\SOURCE\REPOS\PRACTICUM_SHOOTER\PACKAGES\ALLEGRO.5.2.3.1\BUILD\NATIVE\INCLUDE\ALLEGRO5\MOUSE_CURSOR.H
C:\USERS\USER\SOURCE\REPOS\PRACTICUM_SHOOTER\PACKAGES\ALLEGRO.5.2.3.1\BUILD\NATIVE\INCLUDE\ALLEGRO5\RENDER_STATE.H
C:\USERS\USER\SOURCE\REPOS\PRACTICUM_SHOOTER\PACKAGES\ALLEGRO.5.2.3.1\BUILD\NATIVE\INCLUDE\ALLEGRO5\SHADER.H
C:\USERS\USER\SOURCE\REPOS\PRACTICUM_SHOOTER\PACKAGES\ALLEGRO.5.2.3.1\BUILD\NATIVE\INCLUDE\ALLEGRO5\TRANSFORMATIONS.H
C:\USERS\USER\SOURCE\REPOS\PRACTICUM_SHOOTER\PACKAGES\ALLEGRO.5.2.3.1\BUILD\NATIVE\INCLUDE\ALLEGRO5\SYSTEM.H
C:\USERS\USER\SOURCE\REPOS\PRACTICUM_SHOOTER\PACKAGES\ALLEGRO.5.2.3.1\BUILD\NATIVE\INCLUDE\ALLEGRO5\THREADS.H
C:\USERS\USER\SOURCE\REPOS\PRACTICUM_SHOOTER\PACKAGES\ALLEGRO.5.2.3.1\BUILD\NATIVE\INCLUDE\ALLEGRO5\TIMER.H
C:\USERS\USER\SOURCE\REPOS\PRACTICUM_SHOOTER\PACKAGES\ALLEGRO.5.2.3.1\BUILD\NATIVE\INCLUDE\ALLEGRO5\TLS.H
C:\USERS\USER\SOURCE\REPOS\PRACTICUM_SHOOTER\PACKAGES\ALLEGRO.5.2.3.1\BUILD\NATIVE\INCLUDE\ALLEGRO5\ALCOMPAT.H
C:\USERS\USER\SOURCE\REPOS\PRACTICUM_SHOOTER\PACKAGES\ALLEGRO.5.2.3.1\BUILD\NATIVE\INCLUDE\ALLEGRO5\PLATFORM\ALWIN.H
C:\USERS\USER\SOURCE\REPOS\PRACTICUM_SHOOTER\PACKAGES\ALLEGRO.5.2.3.1\BUILD\NATIVE\INCLUDE\ALLEGRO5\ALLEGRO_IMAGE.H
C:\USERS\USER\SOURCE\REPOS\PRACTICUM_SHOOTER\PRACTICUM_SHOOTER\BASE.HPP
^C:\USERS\USER\SOURCE\REPOS\PRACTICUM_SHOOTER\PRACTICUM_SHOOTER\PRAC_USB_DEVICE.CPP
C:\USERS\USER\SOURCE\REPOS\PRACTICUM_SHOOTER\PRACTICUM_SHOOTER\PRAC_USB_DEVICE.HPP
C:\USERS\USER\DOWNLOADS\COMPRESSED\LIBUSB-1.0.21\INCLUDE\LIBUSB-1.0\LIBUSB.H
C:\PROGRAM FILES (X86)\MICROSOFT VISUAL STUDIO\2017\COMMUNITY\VC\TOOLS\MSVC\14.11.25503\INCLUDE\STDINT.H
C:\PROGRAM FILES (X86)\MICROSOFT VISUAL STUDIO\2017\COMMUNITY\VC\TOOLS\MSVC\14.11.25503\INCLUDE\VCRUNTIME.H
C:\PROGRAM FILES (X86)\MICROSOFT VISUAL STUDIO\2017\COMMUNITY\VC\TOOLS\MSVC\14.11.25503\INCLUDE\SAL.H
C:\PROGRAM FILES (X86)\MICROSOFT VISUAL STUDIO\2017\COMMUNITY\VC\TOOLS\MSVC\14.11.25503\INCLUDE\CONCURRENCYSAL.H
C:\PROGRAM FILES (X86)\MICROSOFT VISUAL STUDIO\2017\COMMUNITY\VC\TOOLS\MSVC\14.11.25503\INCLUDE\VADEFS.H
C:\PROGRAM FILES (X86)\WINDOWS KITS\10\INCLUDE\10.0.16299.0\UCRT\SYS\TYPES.H
C:\PROGRAM FILES (X86)\WINDOWS KITS\10\INCLUDE\10.0.16299.0\UCRT\TIME.H
C:\PROGRAM FILES (X86)\WINDOWS KITS\10\INCLUDE\10.0.16299.0\UCRT\CORECRT.H
C:\PROGRAM FILES (X86)\WINDOWS KITS\10\INCLUDE\10.0.16299.0\UCRT\CORECRT_WTIME.H
C:\PROGRAM FILES (X86)\MICROSOFT VISUAL STUDIO\2017\COMMUNITY\VC\TOOLS\MSVC\14.11.25503\INCLUDE\LIMITS.H
C:\PROGRAM FILES (X86)\WINDOWS KITS\10\INCLUDE\10.0.16299.0\UM\WINDOWS.H
C:\PROGRAM FILES (X86)\WINDOWS KITS\10\INCLUDE\10.0.16299.0\SHARED\WINAPIFAMILY.H
C:\PROGRAM FILES (X86)\WINDOWS KITS\10\INCLUDE\10.0.16299.0\SHARED\WINPACKAGEFAMILY.H
C:\PROGRAM FILES (X86)\WINDOWS KITS\10\INCLUDE\10.0.16299.0\SHARED\SDKDDKVER.H
C:\PROGRAM FILES (X86)\MICROSOFT VISUAL STUDIO\2017\COMMUNITY\VC\TOOLS\MSVC\14.11.25503\INCLUDE\EXCPT.H
C:\PROGRAM FILES (X86)\MICROSOFT VISUAL STUDIO\2017\COMMUNITY\VC\TOOLS\MSVC\14.11.25503\INCLUDE\STDARG.H
C:\PROGRAM FILES (X86)\WINDOWS KITS\10\INCLUDE\10.0.16299.0\SHARED\WINDEF.H
C:\PROGRAM FILES (X86)\WINDOWS KITS\10\INCLUDE\10.0.16299.0\SHARED\MINWINDEF.H
C:\PROGRAM FILES (X86)\WINDOWS KITS\10\INCLUDE\10.0.16299.0\SHARED\SPECSTRINGS.H
C:\PROGRAM FILES (X86)\WINDOWS KITS\10\INCLUDE\10.0.16299.0\SHARED\SPECSTRINGS_STRICT.H
C:\PROGRAM FILES (X86)\WINDOWS KITS\10\INCLUDE\10.0.16299.0\SHARED\SPECSTRINGS_UNDEF.H
C:\PROGRAM FILES (X86)\WINDOWS KITS\10\INCLUDE\10.0.16299.0\SHARED\DRIVERSPECS.H
C:\PROGRAM FILES (X86)\WINDOWS KITS\10\INCLUDE\10.0.16299.0\SHARED\SDV_DRIVERSPECS.H
C:\PROGRAM FILES (X86)\WINDOWS KITS\10\INCLUDE\10.0.16299.0\UM\WINNT.H
C:\PROGRAM FILES (X86)\WINDOWS KITS\10\INCLUDE\10.0.16299.0\UCRT\CTYPE.H
C:\PROGRAM FILES (X86)\WINDOWS KITS\10\INCLUDE\10.0.16299.0\UCRT\CORECRT_WCTYPE.H
C:\PROGRAM FILES (X86)\WINDOWS KITS\10\INCLUDE\10.0.16299.0\SHARED\KERNELSPECS.H
C:\PROGRAM FILES (X86)\WINDOWS KITS\10\INCLUDE\10.0.16299.0\SHARED\BASETSD.H
C:\PROGRAM FILES (X86)\WINDOWS KITS\10\INCLUDE\10.0.16299.0\SHARED\GUIDDEF.H
C:\PROGRAM FILES (X86)\WINDOWS KITS\10\INCLUDE\10.0.16299.0\UCRT\STRING.H
C:\PROGRAM FILES (X86)\WINDOWS KITS\10\INCLUDE\10.0.16299.0\UCRT\CORECRT_MEMORY.H
C:\PROGRAM FILES (X86)\WINDOWS KITS\10\INCLUDE\10.0.16299.0\UCRT\CORECRT_MEMCPY_S.H
C:\PROGRAM FILES (X86)\WINDOWS KITS\10\INCLUDE\10.0.16299.0\UCRT\ERRNO.H
C:\PROGRAM FILES (X86)\MICROSOFT VISUAL STUDIO\2017\COMMUNITY\VC\TOOLS\MSVC\14.11.25503\INCLUDE\VCRUNTIME_STRING.H
C:\PROGRAM FILES (X86)\WINDOWS KITS\10\INCLUDE\10.0.16299.0\UCRT\CORECRT_WSTRING.H
C:\PROGRAM FILES (X86)\WINDOWS KITS\10\INCLUDE\10.0.16299.0\SHARED\PSHPACK4.H
C:\PROGRAM FILES (X86)\WINDOWS KITS\10\INCLUDE\10.0.16299.0\SHARED\POPPACK.H
C:\PROGRAM FILES (X86)\WINDOWS KITS\10\INCLUDE\10.0.16299.0\SHARED\PSHPACK2.H
C:\PROGRAM FILES (X86)\WINDOWS KITS\10\INCLUDE\10.0.16299.0\SHARED\PSHPACK8.H
C:\PROGRAM FILES (X86)\WINDOWS KITS\10\INCLUDE\10.0.16299.0\SHARED\PSHPACK1.H
C:\PROGRAM FILES (X86)\WINDOWS KITS\10\INCLUDE\10.0.16299.0\SHARED\APISET.H
C:\PROGRAM FILES (X86)\WINDOWS KITS\10\INCLUDE\10.0.16299.0\SHARED\KTMTYPES.H
C:\PROGRAM FILES (X86)\WINDOWS KITS\10\INCLUDE\10.0.16299.0\UM\WINBASE.H
C:\PROGRAM FILES (X86)\WINDOWS KITS\10\INCLUDE\10.0.16299.0\SHARED\APISETCCONV.H
C:\PROGRAM FILES (X86)\WINDOWS KITS\10\INCLUDE\10.0.16299.0\UM\MINWINBASE.H
C:\PROGRAM FILES (X86)\WINDOWS KITS\10\INCLUDE\10.0.16299.0\UM\PROCESSENV.H
C:\PROGRAM FILES (X86)\WINDOWS KITS\10\INCLUDE\10.0.16299.0\UM\FILEAPI.H
C:\PROGRAM FILES (X86)\WINDOWS KITS\10\INCLUDE\10.0.16299.0\UM\DEBUGAPI.H
C:\PROGRAM FILES (X86)\WINDOWS KITS\10\INCLUDE\10.0.16299.0\UM\UTILAPISET.H
C:\PROGRAM FILES (X86)\WINDOWS KITS\10\INCLUDE\10.0.16299.0\UM\HANDLEAPI.H
C:\PROGRAM FILES (X86)\WINDOWS KITS\10\INCLUDE\10.0.16299.0\UM\ERRHANDLINGAPI.H
C:\PROGRAM FILES (X86)\WINDOWS KITS\10\INCLUDE\10.0.16299.0\UM\FIBERSAPI.H
C:\PROGRAM FILES (X86)\WINDOWS KITS\10\INCLUDE\10.0.16299.0\UM\NAMEDPIPEAPI.H
C:\PROGRAM FILES (X86)\WINDOWS KITS\10\INCLUDE\10.0.16299.0\UM\PROFILEAPI.H
C:\PROGRAM FILES (X86)\WINDOWS KITS\10\INCLUDE\10.0.16299.0\UM\HEAPAPI.H
C:\PROGRAM FILES (X86)\WINDOWS KITS\10\INCLUDE\10.0.16299.0\UM\IOAPISET.H
C:\PROGRAM FILES (X86)\WINDOWS KITS\10\INCLUDE\10.0.16299.0\UM\SYNCHAPI.H
C:\PROGRAM FILES (X86)\WINDOWS KITS\10\INCLUDE\10.0.16299.0\UM\INTERLOCKEDAPI.H
C:\PROGRAM FILES (X86)\WINDOWS KITS\10\INCLUDE\10.0.16299.0\UM\PROCESSTHREADSAPI.H
C:\PROGRAM FILES (X86)\WINDOWS KITS\10\INCLUDE\10.0.16299.0\UM\SYSINFOAPI.H
C:\PROGRAM FILES (X86)\WINDOWS KITS\10\INCLUDE\10.0.16299.0\UM\MEMORYAPI.H
C:\PROGRAM FILES (X86)\WINDOWS KITS\10\INCLUDE\10.0.16299.0\UM\ENCLAVEAPI.H
C:\PROGRAM FILES (X86)\WINDOWS KITS\10\INCLUDE\10.0.16299.0\UM\THREADPOOLLEGACYAPISET.H
C:\PROGRAM FILES (X86)\WINDOWS KITS\10\INCLUDE\10.0.16299.0\UM\THREADPOOLAPISET.H
C:\PROGRAM FILES (X86)\WINDOWS KITS\10\INCLUDE\10.0.16299.0\UM\JOBAPI.H
C:\PROGRAM FILES (X86)\WINDOWS KITS\10\INCLUDE\10.0.16299.0\UM\JOBAPI2.H
C:\PROGRAM FILES (X86)\WINDOWS KITS\10\INCLUDE\10.0.16299.0\UM\WOW64APISET.H
C:\PROGRAM FILES (X86)\WINDOWS KITS\10\INCLUDE\10.0.16299.0\UM\LIBLOADERAPI.H
C:\PROGRAM FILES (X86)\WINDOWS KITS\10\INCLUDE\10.0.16299.0\UM\SECURITYBASEAPI.H
C:\PROGRAM FILES (X86)\WINDOWS KITS\10\INCLUDE\10.0.16299.0\UM\NAMESPACEAPI.H
C:\PROGRAM FILES (X86)\WINDOWS KITS\10\INCLUDE\10.0.16299.0\UM\SYSTEMTOPOLOGYAPI.H
C:\PROGRAM FILES (X86)\WINDOWS KITS\10\INCLUDE\10.0.16299.0\UM\PROCESSTOPOLOGYAPI.H
C:\PROGRAM FILES (X86)\WINDOWS KITS\10\INCLUDE\10.0.16299.0\UM\SECURITYAPPCONTAINER.H
C:\PROGRAM FILES (X86)\WINDOWS KITS\10\INCLUDE\10.0.16299.0\UM\REALTIMEAPISET.H
C:\PROGRAM FILES (X86)\WINDOWS KITS\10\INCLUDE\10.0.16299.0\SHARED\WINERROR.H
C:\PROGRAM FILES (X86)\WINDOWS KITS\10\INCLUDE\10.0.16299.0\UM\TIMEZONEAPI.H
C:\PROGRAM FILES (X86)\WINDOWS KITS\10\INCLUDE\10.0.16299.0\UM\WINGDI.H
C:\PROGRAM FILES (X86)\WINDOWS KITS\10\INCLUDE\10.0.16299.0\UM\WINUSER.H
C:\PROGRAM FILES (X86)\WINDOWS KITS\10\INCLUDE\10.0.16299.0\SHARED\TVOUT.H
C:\PROGRAM FILES (X86)\WINDOWS KITS\10\INCLUDE\10.0.16299.0\UM\WINNLS.H
C:\PROGRAM FILES (X86)\WINDOWS KITS\10\INCLUDE\10.0.16299.0\UM\DATETIMEAPI.H
C:\PROGRAM FILES (X86)\WINDOWS KITS\10\INCLUDE\10.0.16299.0\UM\STRINGAPISET.H
C:\PROGRAM FILES (X86)\WINDOWS KITS\10\INCLUDE\10.0.16299.0\UM\WINCON.H
C:\PROGRAM FILES (X86)\WINDOWS KITS\10\INCLUDE\10.0.16299.0\UM\CONSOLEAPI.H
C:\PROGRAM FILES (X86)\WINDOWS KITS\10\INCLUDE\10.0.16299.0\UM\WINVER.H
C:\PROGRAM FILES (X86)\WINDOWS KITS\10\INCLUDE\10.0.16299.0\UM\VERRSRC.H
C:\PROGRAM FILES (X86)\WINDOWS KITS\10\INCLUDE\10.0.16299.0\UM\WINREG.H
C:\PROGRAM FILES (X86)\WINDOWS KITS\10\INCLUDE\10.0.16299.0\UM\REASON.H
C:\PROGRAM FILES (X86)\WINDOWS KITS\10\INCLUDE\10.0.16299.0\UM\WINNETWK.H
C:\PROGRAM FILES (X86)\WINDOWS KITS\10\INCLUDE\10.0.16299.0\SHARED\WNNC.H
C:\PROGRAM FILES (X86)\WINDOWS KITS\10\INCLUDE\10.0.16299.0\SHARED\CDERR.H
C:\PROGRAM FILES (X86)\WINDOWS KITS\10\INCLUDE\10.0.16299.0\UM\DDE.H
C:\PROGRAM FILES (X86)\WINDOWS KITS\10\INCLUDE\10.0.16299.0\UM\DDEML.H
C:\PROGRAM FILES (X86)\WINDOWS KITS\10\INCLUDE\10.0.16299.0\UM\DLGS.H
C:\PROGRAM FILES (X86)\WINDOWS KITS\10\INCLUDE\10.0.16299.0\UM\LZEXPAND.H
C:\PROGRAM FILES (X86)\WINDOWS KITS\10\INCLUDE\10.0.16299.0\UM\MMSYSTEM.H
C:\PROGRAM FILES (X86)\WINDOWS KITS\10\INCLUDE\10.0.16299.0\UM\MMSYSCOM.H
C:\PROGRAM FILES (X86)\WINDOWS KITS\10\INCLUDE\10.0.16299.0\UM\MCIAPI.H
C:\PROGRAM FILES (X86)\WINDOWS KITS\10\INCLUDE\10.0.16299.0\UM\MMISCAPI.H
C:\PROGRAM FILES (X86)\WINDOWS KITS\10\INCLUDE\10.0.16299.0\UM\MMISCAPI2.H
C:\PROGRAM FILES (X86)\WINDOWS KITS\10\INCLUDE\10.0.16299.0\UM\PLAYSOUNDAPI.H
C:\PROGRAM FILES (X86)\WINDOWS KITS\10\INCLUDE\10.0.16299.0\UM\MMEAPI.H
C:\PROGRAM FILES (X86)\WINDOWS KITS\10\INCLUDE\10.0.16299.0\UM\TIMEAPI.H
C:\PROGRAM FILES (X86)\WINDOWS KITS\10\INCLUDE\10.0.16299.0\UM\JOYSTICKAPI.H
C:\PROGRAM FILES (X86)\WINDOWS KITS\10\INCLUDE\10.0.16299.0\UM\NB30.H
C:\PROGRAM FILES (X86)\WINDOWS KITS\10\INCLUDE\10.0.16299.0\SHARED\RPC.H
C:\PROGRAM FILES (X86)\WINDOWS KITS\10\INCLUDE\10.0.16299.0\SHARED\RPCDCE.H
C:\PROGRAM FILES (X86)\WINDOWS KITS\10\INCLUDE\10.0.16299.0\SHARED\RPCDCEP.H
C:\PROGRAM FILES (X86)\WINDOWS KITS\10\INCLUDE\10.0.16299.0\UM\RPCNSI.H
C:\PROGRAM FILES (X86)\WINDOWS KITS\10\INCLUDE\10.0.16299.0\SHARED\RPCNTERR.H
C:\PROGRAM FILES (X86)\WINDOWS KITS\10\INCLUDE\10.0.16299.0\SHARED\RPCASYNC.H
C:\PROGRAM FILES (X86)\WINDOWS KITS\10\INCLUDE\10.0.16299.0\UM\SHELLAPI.H
C:\PROGRAM FILES (X86)\WINDOWS KITS\10\INCLUDE\10.0.16299.0\UM\WINPERF.H
C:\PROGRAM FILES (X86)\WINDOWS KITS\10\INCLUDE\10.0.16299.0\UM\WINSOCK.H
C:\PROGRAM FILES (X86)\WINDOWS KITS\10\INCLUDE\10.0.16299.0\SHARED\INADDR.H
C:\PROGRAM FILES (X86)\WINDOWS KITS\10\INCLUDE\10.0.16299.0\UM\WINCRYPT.H
C:\PROGRAM FILES (X86)\WINDOWS KITS\10\INCLUDE\10.0.16299.0\SHARED\BCRYPT.H
C:\PROGRAM FILES (X86)\WINDOWS KITS\10\INCLUDE\10.0.16299.0\UM\NCRYPT.H
C:\PROGRAM FILES (X86)\WINDOWS KITS\10\INCLUDE\10.0.16299.0\UM\DPAPI.H
C:\PROGRAM FILES (X86)\WINDOWS KITS\10\INCLUDE\10.0.16299.0\UM\WINEFS.H
C:\PROGRAM FILES (X86)\WINDOWS KITS\10\INCLUDE\10.0.16299.0\UM\WINSCARD.H
C:\PROGRAM FILES (X86)\WINDOWS KITS\10\INCLUDE\10.0.16299.0\SHARED\WTYPES.H
C:\PROGRAM FILES (X86)\WINDOWS KITS\10\INCLUDE\10.0.16299.0\SHARED\RPCNDR.H
C:\PROGRAM FILES (X86)\WINDOWS KITS\10\INCLUDE\10.0.16299.0\UM\RPCNSIP.H
C:\PROGRAM FILES (X86)\WINDOWS KITS\10\INCLUDE\10.0.16299.0\SHARED\RPCSAL.H
C:\PROGRAM FILES (X86)\WINDOWS KITS\10\INCLUDE\10.0.16299.0\SHARED\WTYPESBASE.H
C:\PROGRAM FILES (X86)\WINDOWS KITS\10\INCLUDE\10.0.16299.0\UM\WINIOCTL.H
C:\PROGRAM FILES (X86)\WINDOWS KITS\10\INCLUDE\10.0.16299.0\SHARED\WINSMCRD.H
C:\PROGRAM FILES (X86)\WINDOWS KITS\10\INCLUDE\10.0.16299.0\UM\WINSPOOL.H
C:\PROGRAM FILES (X86)\WINDOWS KITS\10\INCLUDE\10.0.16299.0\UM\PRSHT.H
C:\PROGRAM FILES (X86)\WINDOWS KITS\10\INCLUDE\10.0.16299.0\UM\OLE2.H
C:\PROGRAM FILES (X86)\WINDOWS KITS\10\INCLUDE\10.0.16299.0\UM\OBJBASE.H
C:\PROGRAM FILES (X86)\WINDOWS KITS\10\INCLUDE\10.0.16299.0\UM\COMBASEAPI.H
C:\PROGRAM FILES (X86)\WINDOWS KITS\10\INCLUDE\10.0.16299.0\UCRT\STDLIB.H
C:\PROGRAM FILES (X86)\WINDOWS KITS\10\INCLUDE\10.0.16299.0\UCRT\CORECRT_MALLOC.H
C:\PROGRAM FILES (X86)\WINDOWS KITS\10\INCLUDE\10.0.16299.0\UCRT\CORECRT_SEARCH.H
C:\PROGRAM FILES (X86)\WINDOWS KITS\10\INCLUDE\10.0.16299.0\UCRT\STDDEF.H
C:\PROGRAM FILES (X86)\WINDOWS KITS\10\INCLUDE\10.0.16299.0\UCRT\CORECRT_WSTDLIB.H
C:\PROGRAM FILES (X86)\WINDOWS KITS\10\INCLUDE\10.0.16299.0\UM\UNKNWNBASE.H
C:\PROGRAM FILES (X86)\WINDOWS KITS\10\INCLUDE\10.0.16299.0\UM\OBJIDLBASE.H
C:\PROGRAM FILES (X86)\WINDOWS KITS\10\INCLUDE\10.0.16299.0\UM\CGUID.H
C:\PROGRAM FILES (X86)\WINDOWS KITS\10\INCLUDE\10.0.16299.0\UM\COML2API.H
C:\PROGRAM FILES (X86)\WINDOWS KITS\10\INCLUDE\10.0.16299.0\UM\OBJIDL.H
C:\PROGRAM FILES (X86)\WINDOWS KITS\10\INCLUDE\10.0.16299.0\UM\UNKNWN.H
C:\PROGRAM FILES (X86)\WINDOWS KITS\10\INCLUDE\10.0.16299.0\UM\PROPIDLBASE.H
C:\PROGRAM FILES (X86)\WINDOWS KITS\10\INCLUDE\10.0.16299.0\UM\OAIDL.H
C:\PROGRAM FILES (X86)\WINDOWS KITS\10\INCLUDE\10.0.16299.0\UM\URLMON.H
C:\PROGRAM FILES (X86)\WINDOWS KITS\10\INCLUDE\10.0.16299.0\UM\OLEIDL.H
C:\PROGRAM FILES (X86)\WINDOWS KITS\10\INCLUDE\10.0.16299.0\UM\SERVPROV.H
C:\PROGRAM FILES (X86)\WINDOWS KITS\10\INCLUDE\10.0.16299.0\UM\MSXML.H
C:\PROGRAM FILES (X86)\WINDOWS KITS\10\INCLUDE\10.0.16299.0\UM\PROPIDL.H
C:\PROGRAM FILES (X86)\WINDOWS KITS\10\INCLUDE\10.0.16299.0\UM\OLEAUTO.H
C:\PROGRAM FILES (X86)\WINDOWS KITS\10\INCLUDE\10.0.16299.0\UM\COMMDLG.H
C:\PROGRAM FILES (X86)\WINDOWS KITS\10\INCLUDE\10.0.16299.0\SHARED\STRALIGN.H
C:\PROGRAM FILES (X86)\WINDOWS KITS\10\INCLUDE\10.0.16299.0\UM\WINSVC.H
C:\PROGRAM FILES (X86)\WINDOWS KITS\10\INCLUDE\10.0.16299.0\UM\MCX.H
C:\PROGRAM FILES (X86)\WINDOWS KITS\10\INCLUDE\10.0.16299.0\UM\IMM.H
C:\PROGRAM FILES (X86)\WINDOWS KITS\10\INCLUDE\10.0.16299.0\UM\IME_CMODES.H
C:\PROGRAM FILES (X86)\MICROSOFT VISUAL STUDIO\2017\COMMUNITY\VC\TOOLS\MSVC\14.11.25503\INCLUDE\ATOMIC
C:\PROGRAM FILES (X86)\MICROSOFT VISUAL STUDIO\2017\COMMUNITY\VC\TOOLS\MSVC\14.11.25503\INCLUDE\YVALS.H
C:\PROGRAM FILES (X86)\MICROSOFT VISUAL STUDIO\2017\COMMUNITY\VC\TOOLS\MSVC\14.11.25503\INCLUDE\XKEYCHECK.H
C:\PROGRAM FILES (X86)\MICROSOFT VISUAL STUDIO\2017\COMMUNITY\VC\TOOLS\MSVC\14.11.25503\INCLUDE\CRTDEFS.H
C:\PROGRAM FILES (X86)\MICROSOFT VISUAL STUDIO\2017\COMMUNITY\VC\TOOLS\MSVC\14.11.25503\INCLUDE\USE_ANSI.H
C:\PROGRAM FILES (X86)\MICROSOFT VISUAL STUDIO\2017\COMMUNITY\VC\TOOLS\MSVC\14.11.25503\INCLUDE\TYPE_TRAITS
C:\PROGRAM FILES (X86)\MICROSOFT VISUAL STUDIO\2017\COMMUNITY\VC\TOOLS\MSVC\14.11.25503\INCLUDE\XSTDDEF
C:\PROGRAM FILES (X86)\MICROSOFT VISUAL STUDIO\2017\COMMUNITY\VC\TOOLS\MSVC\14.11.25503\INCLUDE\CSTDDEF
C:\PROGRAM FILES (X86)\MICROSOFT VISUAL STUDIO\2017\COMMUNITY\VC\TOOLS\MSVC\14.11.25503\INCLUDE\XTR1COMMON
C:\PROGRAM FILES (X86)\MICROSOFT VISUAL STUDIO\2017\COMMUNITY\VC\TOOLS\MSVC\14.11.25503\INCLUDE\CSTDLIB
C:\PROGRAM FILES (X86)\WINDOWS KITS\10\INCLUDE\10.0.16299.0\UCRT\MATH.H
C:\PROGRAM FILES (X86)\WINDOWS KITS\10\INCLUDE\10.0.16299.0\UCRT\CORECRT_MATH.H
C:\PROGRAM FILES (X86)\MICROSOFT VISUAL STUDIO\2017\COMMUNITY\VC\TOOLS\MSVC\14.11.25503\INCLUDE\INITIALIZER_LIST
C:\PROGRAM FILES (X86)\MICROSOFT VISUAL STUDIO\2017\COMMUNITY\VC\TOOLS\MSVC\14.11.25503\INCLUDE\XATOMIC.H
C:\PROGRAM FILES (X86)\MICROSOFT VISUAL STUDIO\2017\COMMUNITY\VC\TOOLS\MSVC\14.11.25503\INCLUDE\XATOMIC0.H
C:\PROGRAM FILES (X86)\MICROSOFT VISUAL STUDIO\2017\COMMUNITY\VC\TOOLS\MSVC\14.11.25503\INCLUDE\INTRIN0.H
C:\PROGRAM FILES (X86)\MICROSOFT VISUAL STUDIO\2017\COMMUNITY\VC\TOOLS\MSVC\14.11.25503\INCLUDE\XUTILITY
C:\PROGRAM FILES (X86)\MICROSOFT VISUAL STUDIO\2017\COMMUNITY\VC\TOOLS\MSVC\14.11.25503\INCLUDE\CLIMITS
C:\PROGRAM FILES (X86)\MICROSOFT VISUAL STUDIO\2017\COMMUNITY\VC\TOOLS\MSVC\14.11.25503\INCLUDE\UTILITY
C:\PROGRAM FILES (X86)\MICROSOFT VISUAL STUDIO\2017\COMMUNITY\VC\TOOLS\MSVC\14.11.25503\INCLUDE\IOSFWD
C:\PROGRAM FILES (X86)\MICROSOFT VISUAL STUDIO\2017\COMMUNITY\VC\TOOLS\MSVC\14.11.25503\INCLUDE\CSTDIO
C:\PROGRAM FILES (X86)\WINDOWS KITS\10\INCLUDE\10.0.16299.0\UCRT\STDIO.H
C:\PROGRAM FILES (X86)\WINDOWS KITS\10\INCLUDE\10.0.16299.0\UCRT\CORECRT_WSTDIO.H
C:\PROGRAM FILES (X86)\WINDOWS KITS\10\INCLUDE\10.0.16299.0\UCRT\CORECRT_STDIO_CONFIG.H
C:\PROGRAM FILES (X86)\MICROSOFT VISUAL STUDIO\2017\COMMUNITY\VC\TOOLS\MSVC\14.11.25503\INCLUDE\CSTRING
C:\PROGRAM FILES (X86)\MICROSOFT VISUAL STUDIO\2017\COMMUNITY\VC\TOOLS\MSVC\14.11.25503\INCLUDE\CWCHAR
C:\PROGRAM FILES (X86)\WINDOWS KITS\10\INCLUDE\10.0.16299.0\UCRT\WCHAR.H
C:\PROGRAM FILES (X86)\WINDOWS KITS\10\INCLUDE\10.0.16299.0\UCRT\CORECRT_WCONIO.H
C:\PROGRAM FILES (X86)\WINDOWS KITS\10\INCLUDE\10.0.16299.0\UCRT\CORECRT_WDIRECT.H
C:\PROGRAM FILES (X86)\WINDOWS KITS\10\INCLUDE\10.0.16299.0\UCRT\CORECRT_WIO.H
C:\PROGRAM FILES (X86)\WINDOWS KITS\10\INCLUDE\10.0.16299.0\UCRT\CORECRT_SHARE.H
C:\PROGRAM FILES (X86)\WINDOWS KITS\10\INCLUDE\10.0.16299.0\UCRT\CORECRT_WPROCESS.H
C:\PROGRAM FILES (X86)\WINDOWS KITS\10\INCLUDE\10.0.16299.0\UCRT\SYS\STAT.H
C:\PROGRAM FILES (X86)\WINDOWS KITS\10\INCLUDE\10.0.16299.0\UCRT\CRTDBG.H
C:\PROGRAM FILES (X86)\MICROSOFT VISUAL STUDIO\2017\COMMUNITY\VC\TOOLS\MSVC\14.11.25503\INCLUDE\VCRUNTIME_NEW_DEBUG.H
C:\PROGRAM FILES (X86)\MICROSOFT VISUAL STUDIO\2017\COMMUNITY\VC\TOOLS\MSVC\14.11.25503\INCLUDE\VCRUNTIME_NEW.H
C:\PROGRAM FILES (X86)\MICROSOFT VISUAL STUDIO\2017\COMMUNITY\VC\TOOLS\MSVC\14.11.25503\INCLUDE\XXATOMIC
C:\PROGRAM FILES (X86)\MICROSOFT VISUAL STUDIO\2017\COMMUNITY\VC\TOOLS\MSVC\14.11.25503\INCLUDE\THREAD
C:\PROGRAM FILES (X86)\MICROSOFT VISUAL STUDIO\2017\COMMUNITY\VC\TOOLS\MSVC\14.11.25503\INCLUDE\EXCEPTION
C:\PROGRAM FILES (X86)\WINDOWS KITS\10\INCLUDE\10.0.16299.0\UCRT\MALLOC.H
C:\PROGRAM FILES (X86)\MICROSOFT VISUAL STUDIO\2017\COMMUNITY\VC\TOOLS\MSVC\14.11.25503\INCLUDE\VCRUNTIME_EXCEPTION.H
C:\PROGRAM FILES (X86)\MICROSOFT VISUAL STUDIO\2017\COMMUNITY\VC\TOOLS\MSVC\14.11.25503\INCLUDE\EH.H
C:\PROGRAM FILES (X86)\WINDOWS KITS\10\INCLUDE\10.0.16299.0\UCRT\CORECRT_TERMINATE.H
C:\PROGRAM FILES (X86)\MICROSOFT VISUAL STUDIO\2017\COMMUNITY\VC\TOOLS\MSVC\14.11.25503\INCLUDE\FUNCTIONAL
C:\PROGRAM FILES (X86)\MICROSOFT VISUAL STUDIO\2017\COMMUNITY\VC\TOOLS\MSVC\14.11.25503\INCLUDE\TUPLE
C:\PROGRAM FILES (X86)\MICROSOFT VISUAL STUDIO\2017\COMMUNITY\VC\TOOLS\MSVC\14.11.25503\INCLUDE\NEW
C:\PROGRAM FILES (X86)\MICROSOFT VISUAL STUDIO\2017\COMMUNITY\VC\TOOLS\MSVC\14.11.25503\INCLUDE\TYPEINFO
C:\PROGRAM FILES (X86)\MICROSOFT VISUAL STUDIO\2017\COMMUNITY\VC\TOOLS\MSVC\14.11.25503\INCLUDE\VCRUNTIME_TYPEINFO.H
C:\PROGRAM FILES (X86)\MICROSOFT VISUAL STUDIO\2017\COMMUNITY\VC\TOOLS\MSVC\14.11.25503\INCLUDE\XFUNCTIONAL
C:\PROGRAM FILES (X86)\MICROSOFT VISUAL STUDIO\2017\COMMUNITY\VC\TOOLS\MSVC\14.11.25503\INCLUDE\XSTRING
C:\PROGRAM FILES (X86)\MICROSOFT VISUAL STUDIO\2017\COMMUNITY\VC\TOOLS\MSVC\14.11.25503\INCLUDE\XMEMORY0
C:\PROGRAM FILES (X86)\MICROSOFT VISUAL STUDIO\2017\COMMUNITY\VC\TOOLS\MSVC\14.11.25503\INCLUDE\CSTDINT
C:\PROGRAM FILES (X86)\MICROSOFT VISUAL STUDIO\2017\COMMUNITY\VC\TOOLS\MSVC\14.11.25503\INCLUDE\LIMITS
C:\PROGRAM FILES (X86)\MICROSOFT VISUAL STUDIO\2017\COMMUNITY\VC\TOOLS\MSVC\14.11.25503\INCLUDE\YMATH.H
C:\PROGRAM FILES (X86)\MICROSOFT VISUAL STUDIO\2017\COMMUNITY\VC\TOOLS\MSVC\14.11.25503\INCLUDE\CFLOAT
C:\PROGRAM FILES (X86)\WINDOWS KITS\10\INCLUDE\10.0.16299.0\UCRT\FLOAT.H
C:\PROGRAM FILES (X86)\MICROSOFT VISUAL STUDIO\2017\COMMUNITY\VC\TOOLS\MSVC\14.11.25503\INCLUDE\CMATH
C:\PROGRAM FILES (X86)\MICROSOFT VISUAL STUDIO\2017\COMMUNITY\VC\TOOLS\MSVC\14.11.25503\INCLUDE\XTGMATH.H
C:\PROGRAM FILES (X86)\MICROSOFT VISUAL STUDIO\2017\COMMUNITY\VC\TOOLS\MSVC\14.11.25503\INCLUDE\CHRONO
C:\PROGRAM FILES (X86)\MICROSOFT VISUAL STUDIO\2017\COMMUNITY\VC\TOOLS\MSVC\14.11.25503\INCLUDE\RATIO
C:\PROGRAM FILES (X86)\MICROSOFT VISUAL STUDIO\2017\COMMUNITY\VC\TOOLS\MSVC\14.11.25503\INCLUDE\THR\XTIMEC.H
C:\PROGRAM FILES (X86)\MICROSOFT VISUAL STUDIO\2017\COMMUNITY\VC\TOOLS\MSVC\14.11.25503\INCLUDE\THR\XTHRCOMMON.H
C:\PROGRAM FILES (X86)\MICROSOFT VISUAL STUDIO\2017\COMMUNITY\VC\TOOLS\MSVC\14.11.25503\INCLUDE\MEMORY
C:\PROGRAM FILES (X86)\MICROSOFT VISUAL STUDIO\2017\COMMUNITY\VC\TOOLS\MSVC\14.11.25503\INCLUDE\XMEMORY
C:\PROGRAM FILES (X86)\MICROSOFT VISUAL STUDIO\2017\COMMUNITY\VC\TOOLS\MSVC\14.11.25503\INCLUDE\THR\XTHREAD
C:\PROGRAM FILES (X86)\MICROSOFT VISUAL STUDIO\2017\COMMUNITY\VC\TOOLS\MSVC\14.11.25503\INCLUDE\THR\XTIME
C:\PROGRAM FILES (X86)\MICROSOFT VISUAL STUDIO\2017\COMMUNITY\VC\TOOLS\MSVC\14.11.25503\INCLUDE\THR\XTHREADS.H
C:\PROGRAM FILES (X86)\MICROSOFT VISUAL STUDIO\2017\COMMUNITY\VC\TOOLS\MSVC\14.11.25503\INCLUDE\MUTEX
C:\PROGRAM FILES (X86)\MICROSOFT VISUAL STUDIO\2017\COMMUNITY\VC\TOOLS\MSVC\14.11.25503\INCLUDE\SYSTEM_ERROR
C:\PROGRAM FILES (X86)\MICROSOFT VISUAL STUDIO\2017\COMMUNITY\VC\TOOLS\MSVC\14.11.25503\INCLUDE\CERRNO
C:\PROGRAM FILES (X86)\MICROSOFT VISUAL STUDIO\2017\COMMUNITY\VC\TOOLS\MSVC\14.11.25503\INCLUDE\STDEXCEPT
C:\PROGRAM FILES (X86)\MICROSOFT VISUAL STUDIO\2017\COMMUNITY\VC\TOOLS\MSVC\14.11.25503\INCLUDE\XCALL_ONCE.H
C:\PROGRAM FILES (X86)\MICROSOFT VISUAL STUDIO\2017\COMMUNITY\VC\TOOLS\MSVC\14.11.25503\INCLUDE\CONDITION_VARIABLE
^C:\USERS\USER\SOURCE\REPOS\PRACTICUM_SHOOTER\PRACTICUM_SHOOTER\PRAC_USB.CPP
C:\USERS\USER\SOURCE\REPOS\PRACTICUM_SHOOTER\PRACTICUM_SHOOTER\PRAC_USB.HPP
C:\PROGRAM FILES (X86)\MICROSOFT VISUAL STUDIO\2017\COMMUNITY\VC\TOOLS\MSVC\14.11.25503\INCLUDE\CSTDLIB
C:\PROGRAM FILES (X86)\MICROSOFT VISUAL STUDIO\2017\COMMUNITY\VC\TOOLS\MSVC\14.11.25503\INCLUDE\YVALS.H
C:\PROGRAM FILES (X86)\MICROSOFT VISUAL STUDIO\2017\COMMUNITY\VC\TOOLS\MSVC\14.11.25503\INCLUDE\XKEYCHECK.H
C:\PROGRAM FILES (X86)\MICROSOFT VISUAL STUDIO\2017\COMMUNITY\VC\TOOLS\MSVC\14.11.25503\INCLUDE\CRTDEFS.H
C:\PROGRAM FILES (X86)\MICROSOFT VISUAL STUDIO\2017\COMMUNITY\VC\TOOLS\MSVC\14.11.25503\INCLUDE\VCRUNTIME.H
C:\PROGRAM FILES (X86)\MICROSOFT VISUAL STUDIO\2017\COMMUNITY\VC\TOOLS\MSVC\14.11.25503\INCLUDE\SAL.H
C:\PROGRAM FILES (X86)\MICROSOFT VISUAL STUDIO\2017\COMMUNITY\VC\TOOLS\MSVC\14.11.25503\INCLUDE\CONCURRENCYSAL.H
C:\PROGRAM FILES (X86)\MICROSOFT VISUAL STUDIO\2017\COMMUNITY\VC\TOOLS\MSVC\14.11.25503\INCLUDE\VADEFS.H
C:\PROGRAM FILES (X86)\WINDOWS KITS\10\INCLUDE\10.0.16299.0\UCRT\CORECRT.H
C:\PROGRAM FILES (X86)\MICROSOFT VISUAL STUDIO\2017\COMMUNITY\VC\TOOLS\MSVC\14.11.25503\INCLUDE\USE_ANSI.H
C:\PROGRAM FILES (X86)\WINDOWS KITS\10\INCLUDE\10.0.16299.0\UCRT\STDLIB.H
C:\PROGRAM FILES (X86)\WINDOWS KITS\10\INCLUDE\10.0.16299.0\UCRT\CORECRT_MALLOC.H
C:\PROGRAM FILES (X86)\WINDOWS KITS\10\INCLUDE\10.0.16299.0\UCRT\CORECRT_SEARCH.H
C:\PROGRAM FILES (X86)\WINDOWS KITS\10\INCLUDE\10.0.16299.0\UCRT\STDDEF.H
C:\PROGRAM FILES (X86)\WINDOWS KITS\10\INCLUDE\10.0.16299.0\UCRT\CORECRT_WSTDLIB.H
C:\PROGRAM FILES (X86)\MICROSOFT VISUAL STUDIO\2017\COMMUNITY\VC\TOOLS\MSVC\14.11.25503\INCLUDE\LIMITS.H
C:\PROGRAM FILES (X86)\WINDOWS KITS\10\INCLUDE\10.0.16299.0\UCRT\MATH.H
C:\PROGRAM FILES (X86)\WINDOWS KITS\10\INCLUDE\10.0.16299.0\UCRT\CORECRT_MATH.H
C:\PROGRAM FILES (X86)\MICROSOFT VISUAL STUDIO\2017\COMMUNITY\VC\TOOLS\MSVC\14.11.25503\INCLUDE\CSTDIO
C:\PROGRAM FILES (X86)\WINDOWS KITS\10\INCLUDE\10.0.16299.0\UCRT\STDIO.H
C:\PROGRAM FILES (X86)\WINDOWS KITS\10\INCLUDE\10.0.16299.0\UCRT\CORECRT_WSTDIO.H
C:\PROGRAM FILES (X86)\WINDOWS KITS\10\INCLUDE\10.0.16299.0\UCRT\CORECRT_STDIO_CONFIG.H
C:\USERS\USER\DOWNLOADS\COMPRESSED\LIBUSB-1.0.21\INCLUDE\LIBUSB-1.0\LIBUSB.H
C:\PROGRAM FILES (X86)\MICROSOFT VISUAL STUDIO\2017\COMMUNITY\VC\TOOLS\MSVC\14.11.25503\INCLUDE\STDINT.H
C:\PROGRAM FILES (X86)\WINDOWS KITS\10\INCLUDE\10.0.16299.0\UCRT\SYS\TYPES.H
C:\PROGRAM FILES (X86)\WINDOWS KITS\10\INCLUDE\10.0.16299.0\UCRT\TIME.H
C:\PROGRAM FILES (X86)\WINDOWS KITS\10\INCLUDE\10.0.16299.0\UCRT\CORECRT_WTIME.H
C:\PROGRAM FILES (X86)\WINDOWS KITS\10\INCLUDE\10.0.16299.0\UM\WINDOWS.H
C:\PROGRAM FILES (X86)\WINDOWS KITS\10\INCLUDE\10.0.16299.0\SHARED\WINAPIFAMILY.H
C:\PROGRAM FILES (X86)\WINDOWS KITS\10\INCLUDE\10.0.16299.0\SHARED\WINPACKAGEFAMILY.H
C:\PROGRAM FILES (X86)\WINDOWS KITS\10\INCLUDE\10.0.16299.0\SHARED\SDKDDKVER.H
C:\PROGRAM FILES (X86)\MICROSOFT VISUAL STUDIO\2017\COMMUNITY\VC\TOOLS\MSVC\14.11.25503\INCLUDE\EXCPT.H
C:\PROGRAM FILES (X86)\MICROSOFT VISUAL STUDIO\2017\COMMUNITY\VC\TOOLS\MSVC\14.11.25503\INCLUDE\STDARG.H
C:\PROGRAM FILES (X86)\WINDOWS KITS\10\INCLUDE\10.0.16299.0\SHARED\WINDEF.H
C:\PROGRAM FILES (X86)\WINDOWS KITS\10\INCLUDE\10.0.16299.0\SHARED\MINWINDEF.H
C:\PROGRAM FILES (X86)\WINDOWS KITS\10\INCLUDE\10.0.16299.0\SHARED\SPECSTRINGS.H
C:\PROGRAM FILES (X86)\WINDOWS KITS\10\INCLUDE\10.0.16299.0\SHARED\SPECSTRINGS_STRICT.H
C:\PROGRAM FILES (X86)\WINDOWS KITS\10\INCLUDE\10.0.16299.0\SHARED\SPECSTRINGS_UNDEF.H
C:\PROGRAM FILES (X86)\WINDOWS KITS\10\INCLUDE\10.0.16299.0\SHARED\DRIVERSPECS.H
C:\PROGRAM FILES (X86)\WINDOWS KITS\10\INCLUDE\10.0.16299.0\SHARED\SDV_DRIVERSPECS.H
C:\PROGRAM FILES (X86)\WINDOWS KITS\10\INCLUDE\10.0.16299.0\UM\WINNT.H
C:\PROGRAM FILES (X86)\WINDOWS KITS\10\INCLUDE\10.0.16299.0\UCRT\CTYPE.H
C:\PROGRAM FILES (X86)\WINDOWS KITS\10\INCLUDE\10.0.16299.0\UCRT\CORECRT_WCTYPE.H
C:\PROGRAM FILES (X86)\WINDOWS KITS\10\INCLUDE\10.0.16299.0\SHARED\KERNELSPECS.H
C:\PROGRAM FILES (X86)\WINDOWS KITS\10\INCLUDE\10.0.16299.0\SHARED\BASETSD.H
C:\PROGRAM FILES (X86)\WINDOWS KITS\10\INCLUDE\10.0.16299.0\SHARED\GUIDDEF.H
C:\PROGRAM FILES (X86)\WINDOWS KITS\10\INCLUDE\10.0.16299.0\UCRT\STRING.H
C:\PROGRAM FILES (X86)\WINDOWS KITS\10\INCLUDE\10.0.16299.0\UCRT\CORECRT_MEMORY.H
C:\PROGRAM FILES (X86)\WINDOWS KITS\10\INCLUDE\10.0.16299.0\UCRT\CORECRT_MEMCPY_S.H
C:\PROGRAM FILES (X86)\WINDOWS KITS\10\INCLUDE\10.0.16299.0\UCRT\ERRNO.H
C:\PROGRAM FILES (X86)\MICROSOFT VISUAL STUDIO\2017\COMMUNITY\VC\TOOLS\MSVC\14.11.25503\INCLUDE\VCRUNTIME_STRING.H
C:\PROGRAM FILES (X86)\WINDOWS KITS\10\INCLUDE\10.0.16299.0\UCRT\CORECRT_WSTRING.H
C:\PROGRAM FILES (X86)\WINDOWS KITS\10\INCLUDE\10.0.16299.0\SHARED\PSHPACK4.H
C:\PROGRAM FILES (X86)\WINDOWS KITS\10\INCLUDE\10.0.16299.0\SHARED\POPPACK.H
C:\PROGRAM FILES (X86)\WINDOWS KITS\10\INCLUDE\10.0.16299.0\SHARED\PSHPACK2.H
C:\PROGRAM FILES (X86)\WINDOWS KITS\10\INCLUDE\10.0.16299.0\SHARED\PSHPACK8.H
C:\PROGRAM FILES (X86)\WINDOWS KITS\10\INCLUDE\10.0.16299.0\SHARED\PSHPACK1.H
C:\PROGRAM FILES (X86)\WINDOWS KITS\10\INCLUDE\10.0.16299.0\SHARED\APISET.H
C:\PROGRAM FILES (X86)\WINDOWS KITS\10\INCLUDE\10.0.16299.0\SHARED\KTMTYPES.H
C:\PROGRAM FILES (X86)\WINDOWS KITS\10\INCLUDE\10.0.16299.0\UM\WINBASE.H
C:\PROGRAM FILES (X86)\WINDOWS KITS\10\INCLUDE\10.0.16299.0\SHARED\APISETCCONV.H
C:\PROGRAM FILES (X86)\WINDOWS KITS\10\INCLUDE\10.0.16299.0\UM\MINWINBASE.H
C:\PROGRAM FILES (X86)\WINDOWS KITS\10\INCLUDE\10.0.16299.0\UM\PROCESSENV.H
C:\PROGRAM FILES (X86)\WINDOWS KITS\10\INCLUDE\10.0.16299.0\UM\FILEAPI.H
C:\PROGRAM FILES (X86)\WINDOWS KITS\10\INCLUDE\10.0.16299.0\UM\DEBUGAPI.H
C:\PROGRAM FILES (X86)\WINDOWS KITS\10\INCLUDE\10.0.16299.0\UM\UTILAPISET.H
C:\PROGRAM FILES (X86)\WINDOWS KITS\10\INCLUDE\10.0.16299.0\UM\HANDLEAPI.H
C:\PROGRAM FILES (X86)\WINDOWS KITS\10\INCLUDE\10.0.16299.0\UM\ERRHANDLINGAPI.H
C:\PROGRAM FILES (X86)\WINDOWS KITS\10\INCLUDE\10.0.16299.0\UM\FIBERSAPI.H
C:\PROGRAM FILES (X86)\WINDOWS KITS\10\INCLUDE\10.0.16299.0\UM\NAMEDPIPEAPI.H
C:\PROGRAM FILES (X86)\WINDOWS KITS\10\INCLUDE\10.0.16299.0\UM\PROFILEAPI.H
C:\PROGRAM FILES (X86)\WINDOWS KITS\10\INCLUDE\10.0.16299.0\UM\HEAPAPI.H
C:\PROGRAM FILES (X86)\WINDOWS KITS\10\INCLUDE\10.0.16299.0\UM\IOAPISET.H
C:\PROGRAM FILES (X86)\WINDOWS KITS\10\INCLUDE\10.0.16299.0\UM\SYNCHAPI.H
C:\PROGRAM FILES (X86)\WINDOWS KITS\10\INCLUDE\10.0.16299.0\UM\INTERLOCKEDAPI.H
C:\PROGRAM FILES (X86)\WINDOWS KITS\10\INCLUDE\10.0.16299.0\UM\PROCESSTHREADSAPI.H
C:\PROGRAM FILES (X86)\WINDOWS KITS\10\INCLUDE\10.0.16299.0\UM\SYSINFOAPI.H
C:\PROGRAM FILES (X86)\WINDOWS KITS\10\INCLUDE\10.0.16299.0\UM\MEMORYAPI.H
C:\PROGRAM FILES (X86)\WINDOWS KITS\10\INCLUDE\10.0.16299.0\UM\ENCLAVEAPI.H
C:\PROGRAM FILES (X86)\WINDOWS KITS\10\INCLUDE\10.0.16299.0\UM\THREADPOOLLEGACYAPISET.H
C:\PROGRAM FILES (X86)\WINDOWS KITS\10\INCLUDE\10.0.16299.0\UM\THREADPOOLAPISET.H
C:\PROGRAM FILES (X86)\WINDOWS KITS\10\INCLUDE\10.0.16299.0\UM\JOBAPI.H
C:\PROGRAM FILES (X86)\WINDOWS KITS\10\INCLUDE\10.0.16299.0\UM\JOBAPI2.H
C:\PROGRAM FILES (X86)\WINDOWS KITS\10\INCLUDE\10.0.16299.0\UM\WOW64APISET.H
C:\PROGRAM FILES (X86)\WINDOWS KITS\10\INCLUDE\10.0.16299.0\UM\LIBLOADERAPI.H
C:\PROGRAM FILES (X86)\WINDOWS KITS\10\INCLUDE\10.0.16299.0\UM\SECURITYBASEAPI.H
C:\PROGRAM FILES (X86)\WINDOWS KITS\10\INCLUDE\10.0.16299.0\UM\NAMESPACEAPI.H
C:\PROGRAM FILES (X86)\WINDOWS KITS\10\INCLUDE\10.0.16299.0\UM\SYSTEMTOPOLOGYAPI.H
C:\PROGRAM FILES (X86)\WINDOWS KITS\10\INCLUDE\10.0.16299.0\UM\PROCESSTOPOLOGYAPI.H
C:\PROGRAM FILES (X86)\WINDOWS KITS\10\INCLUDE\10.0.16299.0\UM\SECURITYAPPCONTAINER.H
C:\PROGRAM FILES (X86)\WINDOWS KITS\10\INCLUDE\10.0.16299.0\UM\REALTIMEAPISET.H
C:\PROGRAM FILES (X86)\WINDOWS KITS\10\INCLUDE\10.0.16299.0\SHARED\WINERROR.H
C:\PROGRAM FILES (X86)\WINDOWS KITS\10\INCLUDE\10.0.16299.0\UM\TIMEZONEAPI.H
C:\PROGRAM FILES (X86)\WINDOWS KITS\10\INCLUDE\10.0.16299.0\UM\WINGDI.H
C:\PROGRAM FILES (X86)\WINDOWS KITS\10\INCLUDE\10.0.16299.0\UM\WINUSER.H
C:\PROGRAM FILES (X86)\WINDOWS KITS\10\INCLUDE\10.0.16299.0\SHARED\TVOUT.H
C:\PROGRAM FILES (X86)\WINDOWS KITS\10\INCLUDE\10.0.16299.0\UM\WINNLS.H
C:\PROGRAM FILES (X86)\WINDOWS KITS\10\INCLUDE\10.0.16299.0\UM\DATETIMEAPI.H
C:\PROGRAM FILES (X86)\WINDOWS KITS\10\INCLUDE\10.0.16299.0\UM\STRINGAPISET.H
C:\PROGRAM FILES (X86)\WINDOWS KITS\10\INCLUDE\10.0.16299.0\UM\WINCON.H
C:\PROGRAM FILES (X86)\WINDOWS KITS\10\INCLUDE\10.0.16299.0\UM\CONSOLEAPI.H
C:\PROGRAM FILES (X86)\WINDOWS KITS\10\INCLUDE\10.0.16299.0\UM\WINVER.H
C:\PROGRAM FILES (X86)\WINDOWS KITS\10\INCLUDE\10.0.16299.0\UM\VERRSRC.H
C:\PROGRAM FILES (X86)\WINDOWS KITS\10\INCLUDE\10.0.16299.0\UM\WINREG.H
C:\PROGRAM FILES (X86)\WINDOWS KITS\10\INCLUDE\10.0.16299.0\UM\REASON.H
C:\PROGRAM FILES (X86)\WINDOWS KITS\10\INCLUDE\10.0.16299.0\UM\WINNETWK.H
C:\PROGRAM FILES (X86)\WINDOWS KITS\10\INCLUDE\10.0.16299.0\SHARED\WNNC.H
C:\PROGRAM FILES (X86)\WINDOWS KITS\10\INCLUDE\10.0.16299.0\SHARED\CDERR.H
C:\PROGRAM FILES (X86)\WINDOWS KITS\10\INCLUDE\10.0.16299.0\UM\DDE.H
C:\PROGRAM FILES (X86)\WINDOWS KITS\10\INCLUDE\10.0.16299.0\UM\DDEML.H
C:\PROGRAM FILES (X86)\WINDOWS KITS\10\INCLUDE\10.0.16299.0\UM\DLGS.H
C:\PROGRAM FILES (X86)\WINDOWS KITS\10\INCLUDE\10.0.16299.0\UM\LZEXPAND.H
C:\PROGRAM FILES (X86)\WINDOWS KITS\10\INCLUDE\10.0.16299.0\UM\MMSYSTEM.H
C:\PROGRAM FILES (X86)\WINDOWS KITS\10\INCLUDE\10.0.16299.0\UM\MMSYSCOM.H
C:\PROGRAM FILES (X86)\WINDOWS KITS\10\INCLUDE\10.0.16299.0\UM\MCIAPI.H
C:\PROGRAM FILES (X86)\WINDOWS KITS\10\INCLUDE\10.0.16299.0\UM\MMISCAPI.H
C:\PROGRAM FILES (X86)\WINDOWS KITS\10\INCLUDE\10.0.16299.0\UM\MMISCAPI2.H
C:\PROGRAM FILES (X86)\WINDOWS KITS\10\INCLUDE\10.0.16299.0\UM\PLAYSOUNDAPI.H
C:\PROGRAM FILES (X86)\WINDOWS KITS\10\INCLUDE\10.0.16299.0\UM\MMEAPI.H
C:\PROGRAM FILES (X86)\WINDOWS KITS\10\INCLUDE\10.0.16299.0\UM\TIMEAPI.H
C:\PROGRAM FILES (X86)\WINDOWS KITS\10\INCLUDE\10.0.16299.0\UM\JOYSTICKAPI.H
C:\PROGRAM FILES (X86)\WINDOWS KITS\10\INCLUDE\10.0.16299.0\UM\NB30.H
C:\PROGRAM FILES (X86)\WINDOWS KITS\10\INCLUDE\10.0.16299.0\SHARED\RPC.H
C:\PROGRAM FILES (X86)\WINDOWS KITS\10\INCLUDE\10.0.16299.0\SHARED\RPCDCE.H
C:\PROGRAM FILES (X86)\WINDOWS KITS\10\INCLUDE\10.0.16299.0\SHARED\RPCDCEP.H
C:\PROGRAM FILES (X86)\WINDOWS KITS\10\INCLUDE\10.0.16299.0\UM\RPCNSI.H
C:\PROGRAM FILES (X86)\WINDOWS KITS\10\INCLUDE\10.0.16299.0\SHARED\RPCNTERR.H
C:\PROGRAM FILES (X86)\WINDOWS KITS\10\INCLUDE\10.0.16299.0\SHARED\RPCASYNC.H
C:\PROGRAM FILES (X86)\WINDOWS KITS\10\INCLUDE\10.0.16299.0\UM\SHELLAPI.H
C:\PROGRAM FILES (X86)\WINDOWS KITS\10\INCLUDE\10.0.16299.0\UM\WINPERF.H
C:\PROGRAM FILES (X86)\WINDOWS KITS\10\INCLUDE\10.0.16299.0\UM\WINSOCK.H
C:\PROGRAM FILES (X86)\WINDOWS KITS\10\INCLUDE\10.0.16299.0\SHARED\INADDR.H
C:\PROGRAM FILES (X86)\WINDOWS KITS\10\INCLUDE\10.0.16299.0\UM\WINCRYPT.H
C:\PROGRAM FILES (X86)\WINDOWS KITS\10\INCLUDE\10.0.16299.0\SHARED\BCRYPT.H
C:\PROGRAM FILES (X86)\WINDOWS KITS\10\INCLUDE\10.0.16299.0\UM\NCRYPT.H
C:\PROGRAM FILES (X86)\WINDOWS KITS\10\INCLUDE\10.0.16299.0\UM\DPAPI.H
C:\PROGRAM FILES (X86)\WINDOWS KITS\10\INCLUDE\10.0.16299.0\UM\WINEFS.H
C:\PROGRAM FILES (X86)\WINDOWS KITS\10\INCLUDE\10.0.16299.0\UM\WINSCARD.H
C:\PROGRAM FILES (X86)\WINDOWS KITS\10\INCLUDE\10.0.16299.0\SHARED\WTYPES.H
C:\PROGRAM FILES (X86)\WINDOWS KITS\10\INCLUDE\10.0.16299.0\SHARED\RPCNDR.H
C:\PROGRAM FILES (X86)\WINDOWS KITS\10\INCLUDE\10.0.16299.0\UM\RPCNSIP.H
C:\PROGRAM FILES (X86)\WINDOWS KITS\10\INCLUDE\10.0.16299.0\SHARED\RPCSAL.H
C:\PROGRAM FILES (X86)\WINDOWS KITS\10\INCLUDE\10.0.16299.0\SHARED\WTYPESBASE.H
C:\PROGRAM FILES (X86)\WINDOWS KITS\10\INCLUDE\10.0.16299.0\UM\WINIOCTL.H
C:\PROGRAM FILES (X86)\WINDOWS KITS\10\INCLUDE\10.0.16299.0\SHARED\WINSMCRD.H
C:\PROGRAM FILES (X86)\WINDOWS KITS\10\INCLUDE\10.0.16299.0\UM\WINSPOOL.H
C:\PROGRAM FILES (X86)\WINDOWS KITS\10\INCLUDE\10.0.16299.0\UM\PRSHT.H
C:\PROGRAM FILES (X86)\WINDOWS KITS\10\INCLUDE\10.0.16299.0\UM\OLE2.H
C:\PROGRAM FILES (X86)\WINDOWS KITS\10\INCLUDE\10.0.16299.0\UM\OBJBASE.H
C:\PROGRAM FILES (X86)\WINDOWS KITS\10\INCLUDE\10.0.16299.0\UM\COMBASEAPI.H
C:\PROGRAM FILES (X86)\WINDOWS KITS\10\INCLUDE\10.0.16299.0\UM\UNKNWNBASE.H
C:\PROGRAM FILES (X86)\WINDOWS KITS\10\INCLUDE\10.0.16299.0\UM\OBJIDLBASE.H
C:\PROGRAM FILES (X86)\WINDOWS KITS\10\INCLUDE\10.0.16299.0\UM\CGUID.H
C:\PROGRAM FILES (X86)\WINDOWS KITS\10\INCLUDE\10.0.16299.0\UM\COML2API.H
C:\PROGRAM FILES (X86)\WINDOWS KITS\10\INCLUDE\10.0.16299.0\UM\OBJIDL.H
C:\PROGRAM FILES (X86)\WINDOWS KITS\10\INCLUDE\10.0.16299.0\UM\UNKNWN.H
C:\PROGRAM FILES (X86)\WINDOWS KITS\10\INCLUDE\10.0.16299.0\UM\PROPIDLBASE.H
C:\PROGRAM FILES (X86)\WINDOWS KITS\10\INCLUDE\10.0.16299.0\UM\OAIDL.H
C:\PROGRAM FILES (X86)\WINDOWS KITS\10\INCLUDE\10.0.16299.0\UM\URLMON.H
C:\PROGRAM FILES (X86)\WINDOWS KITS\10\INCLUDE\10.0.16299.0\UM\OLEIDL.H
C:\PROGRAM FILES (X86)\WINDOWS KITS\10\INCLUDE\10.0.16299.0\UM\SERVPROV.H
C:\PROGRAM FILES (X86)\WINDOWS KITS\10\INCLUDE\10.0.16299.0\UM\MSXML.H
C:\PROGRAM FILES (X86)\WINDOWS KITS\10\INCLUDE\10.0.16299.0\UM\PROPIDL.H
C:\PROGRAM FILES (X86)\WINDOWS KITS\10\INCLUDE\10.0.16299.0\UM\OLEAUTO.H
C:\PROGRAM FILES (X86)\WINDOWS KITS\10\INCLUDE\10.0.16299.0\UM\COMMDLG.H
C:\PROGRAM FILES (X86)\WINDOWS KITS\10\INCLUDE\10.0.16299.0\SHARED\STRALIGN.H
C:\PROGRAM FILES (X86)\WINDOWS KITS\10\INCLUDE\10.0.16299.0\UM\WINSVC.H
C:\PROGRAM FILES (X86)\WINDOWS KITS\10\INCLUDE\10.0.16299.0\UM\MCX.H
C:\PROGRAM FILES (X86)\WINDOWS KITS\10\INCLUDE\10.0.16299.0\UM\IMM.H
C:\PROGRAM FILES (X86)\WINDOWS KITS\10\INCLUDE\10.0.16299.0\UM\IME_CMODES.H
C:\USERS\USER\SOURCE\REPOS\PRACTICUM_SHOOTER\PRACTICUM_SHOOTER\PRAC_USB_DEVICE.HPP
C:\PROGRAM FILES (X86)\MICROSOFT VISUAL STUDIO\2017\COMMUNITY\VC\TOOLS\MSVC\14.11.25503\INCLUDE\ATOMIC
C:\PROGRAM FILES (X86)\MICROSOFT VISUAL STUDIO\2017\COMMUNITY\VC\TOOLS\MSVC\14.11.25503\INCLUDE\TYPE_TRAITS
C:\PROGRAM FILES (X86)\MICROSOFT VISUAL STUDIO\2017\COMMUNITY\VC\TOOLS\MSVC\14.11.25503\INCLUDE\XSTDDEF
C:\PROGRAM FILES (X86)\MICROSOFT VISUAL STUDIO\2017\COMMUNITY\VC\TOOLS\MSVC\14.11.25503\INCLUDE\CSTDDEF
C:\PROGRAM FILES (X86)\MICROSOFT VISUAL STUDIO\2017\COMMUNITY\VC\TOOLS\MSVC\14.11.25503\INCLUDE\XTR1COMMON
C:\PROGRAM FILES (X86)\MICROSOFT VISUAL STUDIO\2017\COMMUNITY\VC\TOOLS\MSVC\14.11.25503\INCLUDE\INITIALIZER_LIST
C:\PROGRAM FILES (X86)\MICROSOFT VISUAL STUDIO\2017\COMMUNITY\VC\TOOLS\MSVC\14.11.25503\INCLUDE\XATOMIC.H
C:\PROGRAM FILES (X86)\MICROSOFT VISUAL STUDIO\2017\COMMUNITY\VC\TOOLS\MSVC\14.11.25503\INCLUDE\XATOMIC0.H
C:\PROGRAM FILES (X86)\MICROSOFT VISUAL STUDIO\2017\COMMUNITY\VC\TOOLS\MSVC\14.11.25503\INCLUDE\INTRIN0.H
C:\PROGRAM FILES (X86)\MICROSOFT VISUAL STUDIO\2017\COMMUNITY\VC\TOOLS\MSVC\14.11.25503\INCLUDE\XUTILITY
C:\PROGRAM FILES (X86)\MICROSOFT VISUAL STUDIO\2017\COMMUNITY\VC\TOOLS\MSVC\14.11.25503\INCLUDE\CLIMITS
C:\PROGRAM FILES (X86)\MICROSOFT VISUAL STUDIO\2017\COMMUNITY\VC\TOOLS\MSVC\14.11.25503\INCLUDE\UTILITY
C:\PROGRAM FILES (X86)\MICROSOFT VISUAL STUDIO\2017\COMMUNITY\VC\TOOLS\MSVC\14.11.25503\INCLUDE\IOSFWD
C:\PROGRAM FILES (X86)\MICROSOFT VISUAL STUDIO\2017\COMMUNITY\VC\TOOLS\MSVC\14.11.25503\INCLUDE\CSTRING
C:\PROGRAM FILES (X86)\MICROSOFT VISUAL STUDIO\2017\COMMUNITY\VC\TOOLS\MSVC\14.11.25503\INCLUDE\CWCHAR
C:\PROGRAM FILES (X86)\WINDOWS KITS\10\INCLUDE\10.0.16299.0\UCRT\WCHAR.H
C:\PROGRAM FILES (X86)\WINDOWS KITS\10\INCLUDE\10.0.16299.0\UCRT\CORECRT_WCONIO.H
C:\PROGRAM FILES (X86)\WINDOWS KITS\10\INCLUDE\10.0.16299.0\UCRT\CORECRT_WDIRECT.H
C:\PROGRAM FILES (X86)\WINDOWS KITS\10\INCLUDE\10.0.16299.0\UCRT\CORECRT_WIO.H
C:\PROGRAM FILES (X86)\WINDOWS KITS\10\INCLUDE\10.0.16299.0\UCRT\CORECRT_SHARE.H
C:\PROGRAM FILES (X86)\WINDOWS KITS\10\INCLUDE\10.0.16299.0\UCRT\CORECRT_WPROCESS.H
C:\PROGRAM FILES (X86)\WINDOWS KITS\10\INCLUDE\10.0.16299.0\UCRT\SYS\STAT.H
C:\PROGRAM FILES (X86)\WINDOWS KITS\10\INCLUDE\10.0.16299.0\UCRT\CRTDBG.H
C:\PROGRAM FILES (X86)\MICROSOFT VISUAL STUDIO\2017\COMMUNITY\VC\TOOLS\MSVC\14.11.25503\INCLUDE\VCRUNTIME_NEW_DEBUG.H
C:\PROGRAM FILES (X86)\MICROSOFT VISUAL STUDIO\2017\COMMUNITY\VC\TOOLS\MSVC\14.11.25503\INCLUDE\VCRUNTIME_NEW.H
C:\PROGRAM FILES (X86)\MICROSOFT VISUAL STUDIO\2017\COMMUNITY\VC\TOOLS\MSVC\14.11.25503\INCLUDE\XXATOMIC
C:\PROGRAM FILES (X86)\MICROSOFT VISUAL STUDIO\2017\COMMUNITY\VC\TOOLS\MSVC\14.11.25503\INCLUDE\THREAD
C:\PROGRAM FILES (X86)\MICROSOFT VISUAL STUDIO\2017\COMMUNITY\VC\TOOLS\MSVC\14.11.25503\INCLUDE\EXCEPTION
C:\PROGRAM FILES (X86)\WINDOWS KITS\10\INCLUDE\10.0.16299.0\UCRT\MALLOC.H
C:\PROGRAM FILES (X86)\MICROSOFT VISUAL STUDIO\2017\COMMUNITY\VC\TOOLS\MSVC\14.11.25503\INCLUDE\VCRUNTIME_EXCEPTION.H
C:\PROGRAM FILES (X86)\MICROSOFT VISUAL STUDIO\2017\COMMUNITY\VC\TOOLS\MSVC\14.11.25503\INCLUDE\EH.H
C:\PROGRAM FILES (X86)\WINDOWS KITS\10\INCLUDE\10.0.16299.0\UCRT\CORECRT_TERMINATE.H
C:\PROGRAM FILES (X86)\MICROSOFT VISUAL STUDIO\2017\COMMUNITY\VC\TOOLS\MSVC\14.11.25503\INCLUDE\FUNCTIONAL
C:\PROGRAM FILES (X86)\MICROSOFT VISUAL STUDIO\2017\COMMUNITY\VC\TOOLS\MSVC\14.11.25503\INCLUDE\TUPLE
C:\PROGRAM FILES (X86)\MICROSOFT VISUAL STUDIO\2017\COMMUNITY\VC\TOOLS\MSVC\14.11.25503\INCLUDE\NEW
C:\PROGRAM FILES (X86)\MICROSOFT VISUAL STUDIO\2017\COMMUNITY\VC\TOOLS\MSVC\14.11.25503\INCLUDE\TYPEINFO
C:\PROGRAM FILES (X86)\MICROSOFT VISUAL STUDIO\2017\COMMUNITY\VC\TOOLS\MSVC\14.11.25503\INCLUDE\VCRUNTIME_TYPEINFO.H
C:\PROGRAM FILES (X86)\MICROSOFT VISUAL STUDIO\2017\COMMUNITY\VC\TOOLS\MSVC\14.11.25503\INCLUDE\XFUNCTIONAL
C:\PROGRAM FILES (X86)\MICROSOFT VISUAL STUDIO\2017\COMMUNITY\VC\TOOLS\MSVC\14.11.25503\INCLUDE\XSTRING
C:\PROGRAM FILES (X86)\MICROSOFT VISUAL STUDIO\2017\COMMUNITY\VC\TOOLS\MSVC\14.11.25503\INCLUDE\XMEMORY0
C:\PROGRAM FILES (X86)\MICROSOFT VISUAL STUDIO\2017\COMMUNITY\VC\TOOLS\MSVC\14.11.25503\INCLUDE\CSTDINT
C:\PROGRAM FILES (X86)\MICROSOFT VISUAL STUDIO\2017\COMMUNITY\VC\TOOLS\MSVC\14.11.25503\INCLUDE\LIMITS
C:\PROGRAM FILES (X86)\MICROSOFT VISUAL STUDIO\2017\COMMUNITY\VC\TOOLS\MSVC\14.11.25503\INCLUDE\YMATH.H
C:\PROGRAM FILES (X86)\MICROSOFT VISUAL STUDIO\2017\COMMUNITY\VC\TOOLS\MSVC\14.11.25503\INCLUDE\CFLOAT
C:\PROGRAM FILES (X86)\WINDOWS KITS\10\INCLUDE\10.0.16299.0\UCRT\FLOAT.H
C:\PROGRAM FILES (X86)\MICROSOFT VISUAL STUDIO\2017\COMMUNITY\VC\TOOLS\MSVC\14.11.25503\INCLUDE\CMATH
C:\PROGRAM FILES (X86)\MICROSOFT VISUAL STUDIO\2017\COMMUNITY\VC\TOOLS\MSVC\14.11.25503\INCLUDE\XTGMATH.H
C:\PROGRAM FILES (X86)\MICROSOFT VISUAL STUDIO\2017\COMMUNITY\VC\TOOLS\MSVC\14.11.25503\INCLUDE\CHRONO
C:\PROGRAM FILES (X86)\MICROSOFT VISUAL STUDIO\2017\COMMUNITY\VC\TOOLS\MSVC\14.11.25503\INCLUDE\RATIO
C:\PROGRAM FILES (X86)\MICROSOFT VISUAL STUDIO\2017\COMMUNITY\VC\TOOLS\MSVC\14.11.25503\INCLUDE\THR\XTIMEC.H
C:\PROGRAM FILES (X86)\MICROSOFT VISUAL STUDIO\2017\COMMUNITY\VC\TOOLS\MSVC\14.11.25503\INCLUDE\THR\XTHRCOMMON.H
C:\PROGRAM FILES (X86)\MICROSOFT VISUAL STUDIO\2017\COMMUNITY\VC\TOOLS\MSVC\14.11.25503\INCLUDE\MEMORY
C:\PROGRAM FILES (X86)\MICROSOFT VISUAL STUDIO\2017\COMMUNITY\VC\TOOLS\MSVC\14.11.25503\INCLUDE\XMEMORY
C:\PROGRAM FILES (X86)\MICROSOFT VISUAL STUDIO\2017\COMMUNITY\VC\TOOLS\MSVC\14.11.25503\INCLUDE\THR\XTHREAD
C:\PROGRAM FILES (X86)\MICROSOFT VISUAL STUDIO\2017\COMMUNITY\VC\TOOLS\MSVC\14.11.25503\INCLUDE\THR\XTIME
C:\PROGRAM FILES (X86)\MICROSOFT VISUAL STUDIO\2017\COMMUNITY\VC\TOOLS\MSVC\14.11.25503\INCLUDE\THR\XTHREADS.H
C:\PROGRAM FILES (X86)\MICROSOFT VISUAL STUDIO\2017\COMMUNITY\VC\TOOLS\MSVC\14.11.25503\INCLUDE\MUTEX
C:\PROGRAM FILES (X86)\MICROSOFT VISUAL STUDIO\2017\COMMUNITY\VC\TOOLS\MSVC\14.11.25503\INCLUDE\SYSTEM_ERROR
C:\PROGRAM FILES (X86)\MICROSOFT VISUAL STUDIO\2017\COMMUNITY\VC\TOOLS\MSVC\14.11.25503\INCLUDE\CERRNO
C:\PROGRAM FILES (X86)\MICROSOFT VISUAL STUDIO\2017\COMMUNITY\VC\TOOLS\MSVC\14.11.25503\INCLUDE\STDEXCEPT
C:\PROGRAM FILES (X86)\MICROSOFT VISUAL STUDIO\2017\COMMUNITY\VC\TOOLS\MSVC\14.11.25503\INCLUDE\XCALL_ONCE.H
C:\PROGRAM FILES (X86)\MICROSOFT VISUAL STUDIO\2017\COMMUNITY\VC\TOOLS\MSVC\14.11.25503\INCLUDE\CONDITION_VARIABLE
^C:\USERS\USER\SOURCE\REPOS\PRACTICUM_SHOOTER\PRACTICUM_SHOOTER\MAIN.CPP
C:\PROGRAM FILES (X86)\MICROSOFT VISUAL STUDIO\2017\COMMUNITY\VC\TOOLS\MSVC\14.11.25503\INCLUDE\CSTDIO
C:\PROGRAM FILES (X86)\MICROSOFT VISUAL STUDIO\2017\COMMUNITY\VC\TOOLS\MSVC\14.11.25503\INCLUDE\YVALS.H
C:\PROGRAM FILES (X86)\MICROSOFT VISUAL STUDIO\2017\COMMUNITY\VC\TOOLS\MSVC\14.11.25503\INCLUDE\XKEYCHECK.H
C:\PROGRAM FILES (X86)\MICROSOFT VISUAL STUDIO\2017\COMMUNITY\VC\TOOLS\MSVC\14.11.25503\INCLUDE\CRTDEFS.H
C:\PROGRAM FILES (X86)\MICROSOFT VISUAL STUDIO\2017\COMMUNITY\VC\TOOLS\MSVC\14.11.25503\INCLUDE\VCRUNTIME.H
C:\PROGRAM FILES (X86)\MICROSOFT VISUAL STUDIO\2017\COMMUNITY\VC\TOOLS\MSVC\14.11.25503\INCLUDE\SAL.H
C:\PROGRAM FILES (X86)\MICROSOFT VISUAL STUDIO\2017\COMMUNITY\VC\TOOLS\MSVC\14.11.25503\INCLUDE\CONCURRENCYSAL.H
C:\PROGRAM FILES (X86)\MICROSOFT VISUAL STUDIO\2017\COMMUNITY\VC\TOOLS\MSVC\14.11.25503\INCLUDE\VADEFS.H
C:\PROGRAM FILES (X86)\WINDOWS KITS\10\INCLUDE\10.0.16299.0\UCRT\CORECRT.H
C:\PROGRAM FILES (X86)\MICROSOFT VISUAL STUDIO\2017\COMMUNITY\VC\TOOLS\MSVC\14.11.25503\INCLUDE\USE_ANSI.H
C:\PROGRAM FILES (X86)\WINDOWS KITS\10\INCLUDE\10.0.16299.0\UCRT\STDIO.H
C:\PROGRAM FILES (X86)\WINDOWS KITS\10\INCLUDE\10.0.16299.0\UCRT\CORECRT_WSTDIO.H
C:\PROGRAM FILES (X86)\WINDOWS KITS\10\INCLUDE\10.0.16299.0\UCRT\CORECRT_STDIO_CONFIG.H
C:\USERS\USER\SOURCE\REPOS\PRACTICUM_SHOOTER\PACKAGES\ALLEGRO.5.2.3.1\BUILD\NATIVE\INCLUDE\ALLEGRO5\ALLEGRO.H
C:\USERS\USER\SOURCE\REPOS\PRACTICUM_SHOOTER\PACKAGES\ALLEGRO.5.2.3.1\BUILD\NATIVE\INCLUDE\ALLEGRO5\BASE.H
C:\PROGRAM FILES (X86)\WINDOWS KITS\10\INCLUDE\10.0.16299.0\UCRT\ERRNO.H
C:\PROGRAM FILES (X86)\MICROSOFT VISUAL STUDIO\2017\COMMUNITY\VC\TOOLS\MSVC\14.11.25503\INCLUDE\LIMITS.H
C:\PROGRAM FILES (X86)\MICROSOFT VISUAL STUDIO\2017\COMMUNITY\VC\TOOLS\MSVC\14.11.25503\INCLUDE\STDARG.H
C:\PROGRAM FILES (X86)\WINDOWS KITS\10\INCLUDE\10.0.16299.0\UCRT\STDDEF.H
C:\PROGRAM FILES (X86)\WINDOWS KITS\10\INCLUDE\10.0.16299.0\UCRT\STDLIB.H
C:\PROGRAM FILES (X86)\WINDOWS KITS\10\INCLUDE\10.0.16299.0\UCRT\CORECRT_MALLOC.H
C:\PROGRAM FILES (X86)\WINDOWS KITS\10\INCLUDE\10.0.16299.0\UCRT\CORECRT_SEARCH.H
C:\PROGRAM FILES (X86)\WINDOWS KITS\10\INCLUDE\10.0.16299.0\UCRT\CORECRT_WSTDLIB.H
C:\PROGRAM FILES (X86)\WINDOWS KITS\10\INCLUDE\10.0.16299.0\UCRT\TIME.H
C:\PROGRAM FILES (X86)\WINDOWS KITS\10\INCLUDE\10.0.16299.0\UCRT\CORECRT_WTIME.H
C:\PROGRAM FILES (X86)\WINDOWS KITS\10\INCLUDE\10.0.16299.0\UCRT\STRING.H
C:\PROGRAM FILES (X86)\WINDOWS KITS\10\INCLUDE\10.0.16299.0\UCRT\CORECRT_MEMORY.H
C:\PROGRAM FILES (X86)\WINDOWS KITS\10\INCLUDE\10.0.16299.0\UCRT\CORECRT_MEMCPY_S.H
C:\PROGRAM FILES (X86)\MICROSOFT VISUAL STUDIO\2017\COMMUNITY\VC\TOOLS\MSVC\14.11.25503\INCLUDE\VCRUNTIME_STRING.H
C:\PROGRAM FILES (X86)\WINDOWS KITS\10\INCLUDE\10.0.16299.0\UCRT\CORECRT_WSTRING.H
C:\PROGRAM FILES (X86)\WINDOWS KITS\10\INCLUDE\10.0.16299.0\UCRT\SYS\TYPES.H
C:\USERS\USER\SOURCE\REPOS\PRACTICUM_SHOOTER\PACKAGES\ALLEGRO.5.2.3.1\BUILD\NATIVE\INCLUDE\ALLEGRO5\INTERNAL\ALCONFIG.H
C:\USERS\USER\SOURCE\REPOS\PRACTICUM_SHOOTER\PACKAGES\ALLEGRO.5.2.3.1\BUILD\NATIVE\INCLUDE\ALLEGRO5\PLATFORM\ALPLATF.H
C:\USERS\USER\SOURCE\REPOS\PRACTICUM_SHOOTER\PACKAGES\ALLEGRO.5.2.3.1\BUILD\NATIVE\INCLUDE\ALLEGRO5\PLATFORM\ALMSVC.H
C:\PROGRAM FILES (X86)\WINDOWS KITS\10\INCLUDE\10.0.16299.0\UCRT\IO.H
C:\PROGRAM FILES (X86)\WINDOWS KITS\10\INCLUDE\10.0.16299.0\UCRT\CORECRT_IO.H
C:\PROGRAM FILES (X86)\WINDOWS KITS\10\INCLUDE\10.0.16299.0\UCRT\CORECRT_SHARE.H
C:\PROGRAM FILES (X86)\WINDOWS KITS\10\INCLUDE\10.0.16299.0\UCRT\CORECRT_WIO.H
C:\PROGRAM FILES (X86)\WINDOWS KITS\10\INCLUDE\10.0.16299.0\UCRT\FCNTL.H
C:\PROGRAM FILES (X86)\WINDOWS KITS\10\INCLUDE\10.0.16299.0\UCRT\DIRECT.H
C:\PROGRAM FILES (X86)\WINDOWS KITS\10\INCLUDE\10.0.16299.0\UCRT\CORECRT_WDIRECT.H
C:\PROGRAM FILES (X86)\WINDOWS KITS\10\INCLUDE\10.0.16299.0\UCRT\MALLOC.H
C:\USERS\USER\SOURCE\REPOS\PRACTICUM_SHOOTER\PACKAGES\ALLEGRO.5.2.3.1\BUILD\NATIVE\INCLUDE\ALLEGRO5\PLATFORM\ASTDINT.H
C:\PROGRAM FILES (X86)\WINDOWS KITS\10\INCLUDE\10.0.16299.0\UCRT\INTTYPES.H
C:\PROGRAM FILES (X86)\MICROSOFT VISUAL STUDIO\2017\COMMUNITY\VC\TOOLS\MSVC\14.11.25503\INCLUDE\STDINT.H
C:\USERS\USER\SOURCE\REPOS\PRACTICUM_SHOOTER\PACKAGES\ALLEGRO.5.2.3.1\BUILD\NATIVE\INCLUDE\ALLEGRO5\PLATFORM\ASTDBOOL.H
C:\USERS\USER\SOURCE\REPOS\PRACTICUM_SHOOTER\PACKAGES\ALLEGRO.5.2.3.1\BUILD\NATIVE\INCLUDE\ALLEGRO5\ALTIME.H
C:\USERS\USER\SOURCE\REPOS\PRACTICUM_SHOOTER\PACKAGES\ALLEGRO.5.2.3.1\BUILD\NATIVE\INCLUDE\ALLEGRO5\BITMAP.H
C:\USERS\USER\SOURCE\REPOS\PRACTICUM_SHOOTER\PACKAGES\ALLEGRO.5.2.3.1\BUILD\NATIVE\INCLUDE\ALLEGRO5\COLOR.H
C:\USERS\USER\SOURCE\REPOS\PRACTICUM_SHOOTER\PACKAGES\ALLEGRO.5.2.3.1\BUILD\NATIVE\INCLUDE\ALLEGRO5\BITMAP_DRAW.H
C:\USERS\USER\SOURCE\REPOS\PRACTICUM_SHOOTER\PACKAGES\ALLEGRO.5.2.3.1\BUILD\NATIVE\INCLUDE\ALLEGRO5\BITMAP_IO.H
C:\USERS\USER\SOURCE\REPOS\PRACTICUM_SHOOTER\PACKAGES\ALLEGRO.5.2.3.1\BUILD\NATIVE\INCLUDE\ALLEGRO5\FILE.H
C:\USERS\USER\SOURCE\REPOS\PRACTICUM_SHOOTER\PACKAGES\ALLEGRO.5.2.3.1\BUILD\NATIVE\INCLUDE\ALLEGRO5\PATH.H
C:\USERS\USER\SOURCE\REPOS\PRACTICUM_SHOOTER\PACKAGES\ALLEGRO.5.2.3.1\BUILD\NATIVE\INCLUDE\ALLEGRO5\UTF8.H
C:\USERS\USER\SOURCE\REPOS\PRACTICUM_SHOOTER\PACKAGES\ALLEGRO.5.2.3.1\BUILD\NATIVE\INCLUDE\ALLEGRO5\BITMAP_LOCK.H
C:\USERS\USER\SOURCE\REPOS\PRACTICUM_SHOOTER\PACKAGES\ALLEGRO.5.2.3.1\BUILD\NATIVE\INCLUDE\ALLEGRO5\BLENDER.H
C:\USERS\USER\SOURCE\REPOS\PRACTICUM_SHOOTER\PACKAGES\ALLEGRO.5.2.3.1\BUILD\NATIVE\INCLUDE\ALLEGRO5\CLIPBOARD.H
C:\USERS\USER\SOURCE\REPOS\PRACTICUM_SHOOTER\PACKAGES\ALLEGRO.5.2.3.1\BUILD\NATIVE\INCLUDE\ALLEGRO5\DISPLAY.H
C:\USERS\USER\SOURCE\REPOS\PRACTICUM_SHOOTER\PACKAGES\ALLEGRO.5.2.3.1\BUILD\NATIVE\INCLUDE\ALLEGRO5\EVENTS.H
C:\USERS\USER\SOURCE\REPOS\PRACTICUM_SHOOTER\PACKAGES\ALLEGRO.5.2.3.1\BUILD\NATIVE\INCLUDE\ALLEGRO5\CONFIG.H
C:\USERS\USER\SOURCE\REPOS\PRACTICUM_SHOOTER\PACKAGES\ALLEGRO.5.2.3.1\BUILD\NATIVE\INCLUDE\ALLEGRO5\CPU.H
C:\USERS\USER\SOURCE\REPOS\PRACTICUM_SHOOTER\PACKAGES\ALLEGRO.5.2.3.1\BUILD\NATIVE\INCLUDE\ALLEGRO5\DEBUG.H
C:\PROGRAM FILES (X86)\WINDOWS KITS\10\INCLUDE\10.0.16299.0\UCRT\ASSERT.H
C:\USERS\USER\SOURCE\REPOS\PRACTICUM_SHOOTER\PACKAGES\ALLEGRO.5.2.3.1\BUILD\NATIVE\INCLUDE\ALLEGRO5\DRAWING.H
C:\USERS\USER\SOURCE\REPOS\PRACTICUM_SHOOTER\PACKAGES\ALLEGRO.5.2.3.1\BUILD\NATIVE\INCLUDE\ALLEGRO5\ERROR.H
C:\USERS\USER\SOURCE\REPOS\PRACTICUM_SHOOTER\PACKAGES\ALLEGRO.5.2.3.1\BUILD\NATIVE\INCLUDE\ALLEGRO5\FIXED.H
C:\USERS\USER\SOURCE\REPOS\PRACTICUM_SHOOTER\PACKAGES\ALLEGRO.5.2.3.1\BUILD\NATIVE\INCLUDE\ALLEGRO5\FMATHS.H
C:\USERS\USER\SOURCE\REPOS\PRACTICUM_SHOOTER\PACKAGES\ALLEGRO.5.2.3.1\BUILD\NATIVE\INCLUDE\ALLEGRO5\INLINE\FMATHS.INL
C:\USERS\USER\SOURCE\REPOS\PRACTICUM_SHOOTER\PACKAGES\ALLEGRO.5.2.3.1\BUILD\NATIVE\INCLUDE\ALLEGRO5\FSHOOK.H
C:\USERS\USER\SOURCE\REPOS\PRACTICUM_SHOOTER\PACKAGES\ALLEGRO.5.2.3.1\BUILD\NATIVE\INCLUDE\ALLEGRO5\FULLSCREEN_MODE.H
C:\USERS\USER\SOURCE\REPOS\PRACTICUM_SHOOTER\PACKAGES\ALLEGRO.5.2.3.1\BUILD\NATIVE\INCLUDE\ALLEGRO5\HAPTIC.H
C:\USERS\USER\SOURCE\REPOS\PRACTICUM_SHOOTER\PACKAGES\ALLEGRO.5.2.3.1\BUILD\NATIVE\INCLUDE\ALLEGRO5\JOYSTICK.H
C:\USERS\USER\SOURCE\REPOS\PRACTICUM_SHOOTER\PACKAGES\ALLEGRO.5.2.3.1\BUILD\NATIVE\INCLUDE\ALLEGRO5\KEYBOARD.H
C:\USERS\USER\SOURCE\REPOS\PRACTICUM_SHOOTER\PACKAGES\ALLEGRO.5.2.3.1\BUILD\NATIVE\INCLUDE\ALLEGRO5\KEYCODES.H
C:\USERS\USER\SOURCE\REPOS\PRACTICUM_SHOOTER\PACKAGES\ALLEGRO.5.2.3.1\BUILD\NATIVE\INCLUDE\ALLEGRO5\MOUSE.H
C:\USERS\USER\SOURCE\REPOS\PRACTICUM_SHOOTER\PACKAGES\ALLEGRO.5.2.3.1\BUILD\NATIVE\INCLUDE\ALLEGRO5\TOUCH_INPUT.H
C:\USERS\USER\SOURCE\REPOS\PRACTICUM_SHOOTER\PACKAGES\ALLEGRO.5.2.3.1\BUILD\NATIVE\INCLUDE\ALLEGRO5\MEMORY.H
C:\USERS\USER\SOURCE\REPOS\PRACTICUM_SHOOTER\PACKAGES\ALLEGRO.5.2.3.1\BUILD\NATIVE\INCLUDE\ALLEGRO5\MONITOR.H
C:\USERS\USER\SOURCE\REPOS\PRACTICUM_SHOOTER\PACKAGES\ALLEGRO.5.2.3.1\BUILD\NATIVE\INCLUDE\ALLEGRO5\MOUSE_CURSOR.H
C:\USERS\USER\SOURCE\REPOS\PRACTICUM_SHOOTER\PACKAGES\ALLEGRO.5.2.3.1\BUILD\NATIVE\INCLUDE\ALLEGRO5\RENDER_STATE.H
C:\USERS\USER\SOURCE\REPOS\PRACTICUM_SHOOTER\PACKAGES\ALLEGRO.5.2.3.1\BUILD\NATIVE\INCLUDE\ALLEGRO5\SHADER.H
C:\USERS\USER\SOURCE\REPOS\PRACTICUM_SHOOTER\PACKAGES\ALLEGRO.5.2.3.1\BUILD\NATIVE\INCLUDE\ALLEGRO5\TRANSFORMATIONS.H
C:\USERS\USER\SOURCE\REPOS\PRACTICUM_SHOOTER\PACKAGES\ALLEGRO.5.2.3.1\BUILD\NATIVE\INCLUDE\ALLEGRO5\SYSTEM.H
C:\USERS\USER\SOURCE\REPOS\PRACTICUM_SHOOTER\PACKAGES\ALLEGRO.5.2.3.1\BUILD\NATIVE\INCLUDE\ALLEGRO5\THREADS.H
C:\USERS\USER\SOURCE\REPOS\PRACTICUM_SHOOTER\PACKAGES\ALLEGRO.5.2.3.1\BUILD\NATIVE\INCLUDE\ALLEGRO5\TIMER.H
C:\USERS\USER\SOURCE\REPOS\PRACTICUM_SHOOTER\PACKAGES\ALLEGRO.5.2.3.1\BUILD\NATIVE\INCLUDE\ALLEGRO5\TLS.H
C:\USERS\USER\SOURCE\REPOS\PRACTICUM_SHOOTER\PACKAGES\ALLEGRO.5.2.3.1\BUILD\NATIVE\INCLUDE\ALLEGRO5\ALCOMPAT.H
C:\USERS\USER\SOURCE\REPOS\PRACTICUM_SHOOTER\PACKAGES\ALLEGRO.5.2.3.1\BUILD\NATIVE\INCLUDE\ALLEGRO5\PLATFORM\ALWIN.H
C:\USERS\USER\SOURCE\REPOS\PRACTICUM_SHOOTER\PACKAGES\ALLEGRO.5.2.3.1\BUILD\NATIVE\INCLUDE\ALLEGRO5\ALLEGRO_IMAGE.H
C:\USERS\USER\SOURCE\REPOS\PRACTICUM_SHOOTER\PACKAGES\ALLEGRO.5.2.3.1\BUILD\NATIVE\INCLUDE\ALLEGRO5\ALLEGRO_COLOR.H
C:\USERS\USER\SOURCE\REPOS\PRACTICUM_SHOOTER\PACKAGES\ALLEGRO.5.2.3.1\BUILD\NATIVE\INCLUDE\ALLEGRO5\ALLEGRO_PRIMITIVES.H
C:\USERS\USER\SOURCE\REPOS\PRACTICUM_SHOOTER\PACKAGES\ALLEGRO.5.2.3.1\BUILD\NATIVE\INCLUDE\ALLEGRO5\ALLEGRO_FONT.H
C:\USERS\USER\SOURCE\REPOS\PRACTICUM_SHOOTER\PACKAGES\ALLEGRO.5.2.3.1\BUILD\NATIVE\INCLUDE\ALLEGRO5\ALLEGRO_TTF.H
C:\PROGRAM FILES (X86)\MICROSOFT VISUAL STUDIO\2017\COMMUNITY\VC\TOOLS\MSVC\14.11.25503\INCLUDE\STRING
C:\PROGRAM FILES (X86)\MICROSOFT VISUAL STUDIO\2017\COMMUNITY\VC\TOOLS\MSVC\14.11.25503\INCLUDE\ISTREAM
C:\PROGRAM FILES (X86)\MICROSOFT VISUAL STUDIO\2017\COMMUNITY\VC\TOOLS\MSVC\14.11.25503\INCLUDE\OSTREAM
C:\PROGRAM FILES (X86)\MICROSOFT VISUAL STUDIO\2017\COMMUNITY\VC\TOOLS\MSVC\14.11.25503\INCLUDE\IOS
C:\PROGRAM FILES (X86)\MICROSOFT VISUAL STUDIO\2017\COMMUNITY\VC\TOOLS\MSVC\14.11.25503\INCLUDE\XLOCNUM
C:\PROGRAM FILES (X86)\MICROSOFT VISUAL STUDIO\2017\COMMUNITY\VC\TOOLS\MSVC\14.11.25503\INCLUDE\CLIMITS
C:\PROGRAM FILES (X86)\MICROSOFT VISUAL STUDIO\2017\COMMUNITY\VC\TOOLS\MSVC\14.11.25503\INCLUDE\CMATH
C:\PROGRAM FILES (X86)\MICROSOFT VISUAL STUDIO\2017\COMMUNITY\VC\TOOLS\MSVC\14.11.25503\INCLUDE\CSTDLIB
C:\PROGRAM FILES (X86)\WINDOWS KITS\10\INCLUDE\10.0.16299.0\UCRT\MATH.H
C:\PROGRAM FILES (X86)\WINDOWS KITS\10\INCLUDE\10.0.16299.0\UCRT\CORECRT_MATH.H
C:\PROGRAM FILES (X86)\MICROSOFT VISUAL STUDIO\2017\COMMUNITY\VC\TOOLS\MSVC\14.11.25503\INCLUDE\XTGMATH.H
C:\PROGRAM FILES (X86)\MICROSOFT VISUAL STUDIO\2017\COMMUNITY\VC\TOOLS\MSVC\14.11.25503\INCLUDE\XTR1COMMON
C:\PROGRAM FILES (X86)\MICROSOFT VISUAL STUDIO\2017\COMMUNITY\VC\TOOLS\MSVC\14.11.25503\INCLUDE\STREAMBUF
C:\PROGRAM FILES (X86)\MICROSOFT VISUAL STUDIO\2017\COMMUNITY\VC\TOOLS\MSVC\14.11.25503\INCLUDE\XIOSBASE
C:\PROGRAM FILES (X86)\MICROSOFT VISUAL STUDIO\2017\COMMUNITY\VC\TOOLS\MSVC\14.11.25503\INCLUDE\XLOCALE
C:\PROGRAM FILES (X86)\MICROSOFT VISUAL STUDIO\2017\COMMUNITY\VC\TOOLS\MSVC\14.11.25503\INCLUDE\CSTRING
C:\PROGRAM FILES (X86)\MICROSOFT VISUAL STUDIO\2017\COMMUNITY\VC\TOOLS\MSVC\14.11.25503\INCLUDE\STDEXCEPT
C:\PROGRAM FILES (X86)\MICROSOFT VISUAL STUDIO\2017\COMMUNITY\VC\TOOLS\MSVC\14.11.25503\INCLUDE\EXCEPTION
C:\PROGRAM FILES (X86)\MICROSOFT VISUAL STUDIO\2017\COMMUNITY\VC\TOOLS\MSVC\14.11.25503\INCLUDE\TYPE_TRAITS
C:\PROGRAM FILES (X86)\MICROSOFT VISUAL STUDIO\2017\COMMUNITY\VC\TOOLS\MSVC\14.11.25503\INCLUDE\XSTDDEF
C:\PROGRAM FILES (X86)\MICROSOFT VISUAL STUDIO\2017\COMMUNITY\VC\TOOLS\MSVC\14.11.25503\INCLUDE\CSTDDEF
C:\PROGRAM FILES (X86)\MICROSOFT VISUAL STUDIO\2017\COMMUNITY\VC\TOOLS\MSVC\14.11.25503\INCLUDE\INITIALIZER_LIST
C:\PROGRAM FILES (X86)\MICROSOFT VISUAL STUDIO\2017\COMMUNITY\VC\TOOLS\MSVC\14.11.25503\INCLUDE\VCRUNTIME_EXCEPTION.H
C:\PROGRAM FILES (X86)\MICROSOFT VISUAL STUDIO\2017\COMMUNITY\VC\TOOLS\MSVC\14.11.25503\INCLUDE\EH.H
C:\PROGRAM FILES (X86)\WINDOWS KITS\10\INCLUDE\10.0.16299.0\UCRT\CORECRT_TERMINATE.H
C:\PROGRAM FILES (X86)\MICROSOFT VISUAL STUDIO\2017\COMMUNITY\VC\TOOLS\MSVC\14.11.25503\INCLUDE\XSTRING
C:\PROGRAM FILES (X86)\MICROSOFT VISUAL STUDIO\2017\COMMUNITY\VC\TOOLS\MSVC\14.11.25503\INCLUDE\XMEMORY0
C:\PROGRAM FILES (X86)\MICROSOFT VISUAL STUDIO\2017\COMMUNITY\VC\TOOLS\MSVC\14.11.25503\INCLUDE\CSTDINT
C:\PROGRAM FILES (X86)\MICROSOFT VISUAL STUDIO\2017\COMMUNITY\VC\TOOLS\MSVC\14.11.25503\INCLUDE\LIMITS
C:\PROGRAM FILES (X86)\MICROSOFT VISUAL STUDIO\2017\COMMUNITY\VC\TOOLS\MSVC\14.11.25503\INCLUDE\YMATH.H
C:\PROGRAM FILES (X86)\MICROSOFT VISUAL STUDIO\2017\COMMUNITY\VC\TOOLS\MSVC\14.11.25503\INCLUDE\CFLOAT
C:\PROGRAM FILES (X86)\WINDOWS KITS\10\INCLUDE\10.0.16299.0\UCRT\FLOAT.H
C:\PROGRAM FILES (X86)\MICROSOFT VISUAL STUDIO\2017\COMMUNITY\VC\TOOLS\MSVC\14.11.25503\INCLUDE\CWCHAR
C:\PROGRAM FILES (X86)\WINDOWS KITS\10\INCLUDE\10.0.16299.0\UCRT\WCHAR.H
C:\PROGRAM FILES (X86)\WINDOWS KITS\10\INCLUDE\10.0.16299.0\UCRT\CORECRT_WCONIO.H
C:\PROGRAM FILES (X86)\WINDOWS KITS\10\INCLUDE\10.0.16299.0\UCRT\CORECRT_WCTYPE.H
C:\PROGRAM FILES (X86)\WINDOWS KITS\10\INCLUDE\10.0.16299.0\UCRT\CORECRT_WPROCESS.H
C:\PROGRAM FILES (X86)\WINDOWS KITS\10\INCLUDE\10.0.16299.0\UCRT\SYS\STAT.H
C:\PROGRAM FILES (X86)\MICROSOFT VISUAL STUDIO\2017\COMMUNITY\VC\TOOLS\MSVC\14.11.25503\INCLUDE\NEW
C:\PROGRAM FILES (X86)\MICROSOFT VISUAL STUDIO\2017\COMMUNITY\VC\TOOLS\MSVC\14.11.25503\INCLUDE\VCRUNTIME_NEW.H
C:\PROGRAM FILES (X86)\MICROSOFT VISUAL STUDIO\2017\COMMUNITY\VC\TOOLS\MSVC\14.11.25503\INCLUDE\XUTILITY
C:\PROGRAM FILES (X86)\MICROSOFT VISUAL STUDIO\2017\COMMUNITY\VC\TOOLS\MSVC\14.11.25503\INCLUDE\UTILITY
C:\PROGRAM FILES (X86)\MICROSOFT VISUAL STUDIO\2017\COMMUNITY\VC\TOOLS\MSVC\14.11.25503\INCLUDE\IOSFWD
C:\PROGRAM FILES (X86)\WINDOWS KITS\10\INCLUDE\10.0.16299.0\UCRT\CRTDBG.H
C:\PROGRAM FILES (X86)\MICROSOFT VISUAL STUDIO\2017\COMMUNITY\VC\TOOLS\MSVC\14.11.25503\INCLUDE\VCRUNTIME_NEW_DEBUG.H
C:\PROGRAM FILES (X86)\MICROSOFT VISUAL STUDIO\2017\COMMUNITY\VC\TOOLS\MSVC\14.11.25503\INCLUDE\XATOMIC0.H
C:\PROGRAM FILES (X86)\MICROSOFT VISUAL STUDIO\2017\COMMUNITY\VC\TOOLS\MSVC\14.11.25503\INCLUDE\INTRIN0.H
C:\PROGRAM FILES (X86)\MICROSOFT VISUAL STUDIO\2017\COMMUNITY\VC\TOOLS\MSVC\14.11.25503\INCLUDE\TYPEINFO
C:\PROGRAM FILES (X86)\MICROSOFT VISUAL STUDIO\2017\COMMUNITY\VC\TOOLS\MSVC\14.11.25503\INCLUDE\VCRUNTIME_TYPEINFO.H
C:\PROGRAM FILES (X86)\MICROSOFT VISUAL STUDIO\2017\COMMUNITY\VC\TOOLS\MSVC\14.11.25503\INCLUDE\XLOCINFO
C:\PROGRAM FILES (X86)\MICROSOFT VISUAL STUDIO\2017\COMMUNITY\VC\TOOLS\MSVC\14.11.25503\INCLUDE\XLOCINFO.H
C:\PROGRAM FILES (X86)\WINDOWS KITS\10\INCLUDE\10.0.16299.0\UCRT\CTYPE.H
C:\PROGRAM FILES (X86)\WINDOWS KITS\10\INCLUDE\10.0.16299.0\UCRT\LOCALE.H
C:\PROGRAM FILES (X86)\MICROSOFT VISUAL STUDIO\2017\COMMUNITY\VC\TOOLS\MSVC\14.11.25503\INCLUDE\XFACET
C:\PROGRAM FILES (X86)\MICROSOFT VISUAL STUDIO\2017\COMMUNITY\VC\TOOLS\MSVC\14.11.25503\INCLUDE\SYSTEM_ERROR
C:\PROGRAM FILES (X86)\MICROSOFT VISUAL STUDIO\2017\COMMUNITY\VC\TOOLS\MSVC\14.11.25503\INCLUDE\CERRNO
C:\PROGRAM FILES (X86)\MICROSOFT VISUAL STUDIO\2017\COMMUNITY\VC\TOOLS\MSVC\14.11.25503\INCLUDE\XCALL_ONCE.H
C:\PROGRAM FILES (X86)\WINDOWS KITS\10\INCLUDE\10.0.16299.0\UCRT\SHARE.H
C:\PROGRAM FILES (X86)\MICROSOFT VISUAL STUDIO\2017\COMMUNITY\VC\TOOLS\MSVC\14.11.25503\INCLUDE\XSTRING_INSERT.H
C:\PROGRAM FILES (X86)\MICROSOFT VISUAL STUDIO\2017\COMMUNITY\VC\TOOLS\MSVC\14.11.25503\INCLUDE\VECTOR
C:\PROGRAM FILES (X86)\MICROSOFT VISUAL STUDIO\2017\COMMUNITY\VC\TOOLS\MSVC\14.11.25503\INCLUDE\XMEMORY
C:\USERS\USER\SOURCE\REPOS\PRACTICUM_SHOOTER\PRACTICUM_SHOOTER\CALCULATOR_2.HPP
C:\USERS\USER\SOURCE\REPOS\PRACTICUM_SHOOTER\PRACTICUM_SHOOTER\PRAC_USB.HPP
C:\USERS\USER\DOWNLOADS\COMPRESSED\LIBUSB-1.0.21\INCLUDE\LIBUSB-1.0\LIBUSB.H
C:\PROGRAM FILES (X86)\WINDOWS KITS\10\INCLUDE\10.0.16299.0\UM\WINDOWS.H
C:\PROGRAM FILES (X86)\WINDOWS KITS\10\INCLUDE\10.0.16299.0\SHARED\WINAPIFAMILY.H
C:\PROGRAM FILES (X86)\WINDOWS KITS\10\INCLUDE\10.0.16299.0\SHARED\WINPACKAGEFAMILY.H
C:\PROGRAM FILES (X86)\WINDOWS KITS\10\INCLUDE\10.0.16299.0\SHARED\SDKDDKVER.H
C:\PROGRAM FILES (X86)\MICROSOFT VISUAL STUDIO\2017\COMMUNITY\VC\TOOLS\MSVC\14.11.25503\INCLUDE\EXCPT.H
C:\PROGRAM FILES (X86)\WINDOWS KITS\10\INCLUDE\10.0.16299.0\SHARED\WINDEF.H
C:\PROGRAM FILES (X86)\WINDOWS KITS\10\INCLUDE\10.0.16299.0\SHARED\MINWINDEF.H
C:\PROGRAM FILES (X86)\WINDOWS KITS\10\INCLUDE\10.0.16299.0\SHARED\SPECSTRINGS.H
C:\PROGRAM FILES (X86)\WINDOWS KITS\10\INCLUDE\10.0.16299.0\SHARED\SPECSTRINGS_STRICT.H
C:\PROGRAM FILES (X86)\WINDOWS KITS\10\INCLUDE\10.0.16299.0\SHARED\SPECSTRINGS_UNDEF.H
C:\PROGRAM FILES (X86)\WINDOWS KITS\10\INCLUDE\10.0.16299.0\SHARED\DRIVERSPECS.H
C:\PROGRAM FILES (X86)\WINDOWS KITS\10\INCLUDE\10.0.16299.0\SHARED\SDV_DRIVERSPECS.H
C:\PROGRAM FILES (X86)\WINDOWS KITS\10\INCLUDE\10.0.16299.0\UM\WINNT.H
C:\PROGRAM FILES (X86)\WINDOWS KITS\10\INCLUDE\10.0.16299.0\SHARED\KERNELSPECS.H
C:\PROGRAM FILES (X86)\WINDOWS KITS\10\INCLUDE\10.0.16299.0\SHARED\BASETSD.H
C:\PROGRAM FILES (X86)\WINDOWS KITS\10\INCLUDE\10.0.16299.0\SHARED\GUIDDEF.H
C:\PROGRAM FILES (X86)\WINDOWS KITS\10\INCLUDE\10.0.16299.0\SHARED\PSHPACK4.H
C:\PROGRAM FILES (X86)\WINDOWS KITS\10\INCLUDE\10.0.16299.0\SHARED\POPPACK.H
C:\PROGRAM FILES (X86)\WINDOWS KITS\10\INCLUDE\10.0.16299.0\SHARED\PSHPACK2.H
C:\PROGRAM FILES (X86)\WINDOWS KITS\10\INCLUDE\10.0.16299.0\SHARED\PSHPACK8.H
C:\PROGRAM FILES (X86)\WINDOWS KITS\10\INCLUDE\10.0.16299.0\SHARED\PSHPACK1.H
C:\PROGRAM FILES (X86)\WINDOWS KITS\10\INCLUDE\10.0.16299.0\SHARED\APISET.H
C:\PROGRAM FILES (X86)\WINDOWS KITS\10\INCLUDE\10.0.16299.0\SHARED\KTMTYPES.H
C:\PROGRAM FILES (X86)\WINDOWS KITS\10\INCLUDE\10.0.16299.0\UM\WINBASE.H
C:\PROGRAM FILES (X86)\WINDOWS KITS\10\INCLUDE\10.0.16299.0\SHARED\APISETCCONV.H
C:\PROGRAM FILES (X86)\WINDOWS KITS\10\INCLUDE\10.0.16299.0\UM\MINWINBASE.H
C:\PROGRAM FILES (X86)\WINDOWS KITS\10\INCLUDE\10.0.16299.0\UM\PROCESSENV.H
C:\PROGRAM FILES (X86)\WINDOWS KITS\10\INCLUDE\10.0.16299.0\UM\FILEAPI.H
C:\PROGRAM FILES (X86)\WINDOWS KITS\10\INCLUDE\10.0.16299.0\UM\DEBUGAPI.H
C:\PROGRAM FILES (X86)\WINDOWS KITS\10\INCLUDE\10.0.16299.0\UM\UTILAPISET.H
C:\PROGRAM FILES (X86)\WINDOWS KITS\10\INCLUDE\10.0.16299.0\UM\HANDLEAPI.H
C:\PROGRAM FILES (X86)\WINDOWS KITS\10\INCLUDE\10.0.16299.0\UM\ERRHANDLINGAPI.H
C:\PROGRAM FILES (X86)\WINDOWS KITS\10\INCLUDE\10.0.16299.0\UM\FIBERSAPI.H
C:\PROGRAM FILES (X86)\WINDOWS KITS\10\INCLUDE\10.0.16299.0\UM\NAMEDPIPEAPI.H
C:\PROGRAM FILES (X86)\WINDOWS KITS\10\INCLUDE\10.0.16299.0\UM\PROFILEAPI.H
C:\PROGRAM FILES (X86)\WINDOWS KITS\10\INCLUDE\10.0.16299.0\UM\HEAPAPI.H
C:\PROGRAM FILES (X86)\WINDOWS KITS\10\INCLUDE\10.0.16299.0\UM\IOAPISET.H
C:\PROGRAM FILES (X86)\WINDOWS KITS\10\INCLUDE\10.0.16299.0\UM\SYNCHAPI.H
C:\PROGRAM FILES (X86)\WINDOWS KITS\10\INCLUDE\10.0.16299.0\UM\INTERLOCKEDAPI.H
C:\PROGRAM FILES (X86)\WINDOWS KITS\10\INCLUDE\10.0.16299.0\UM\PROCESSTHREADSAPI.H
C:\PROGRAM FILES (X86)\WINDOWS KITS\10\INCLUDE\10.0.16299.0\UM\SYSINFOAPI.H
C:\PROGRAM FILES (X86)\WINDOWS KITS\10\INCLUDE\10.0.16299.0\UM\MEMORYAPI.H
C:\PROGRAM FILES (X86)\WINDOWS KITS\10\INCLUDE\10.0.16299.0\UM\ENCLAVEAPI.H
C:\PROGRAM FILES (X86)\WINDOWS KITS\10\INCLUDE\10.0.16299.0\UM\THREADPOOLLEGACYAPISET.H
C:\PROGRAM FILES (X86)\WINDOWS KITS\10\INCLUDE\10.0.16299.0\UM\THREADPOOLAPISET.H
C:\PROGRAM FILES (X86)\WINDOWS KITS\10\INCLUDE\10.0.16299.0\UM\JOBAPI.H
C:\PROGRAM FILES (X86)\WINDOWS KITS\10\INCLUDE\10.0.16299.0\UM\JOBAPI2.H
C:\PROGRAM FILES (X86)\WINDOWS KITS\10\INCLUDE\10.0.16299.0\UM\WOW64APISET.H
C:\PROGRAM FILES (X86)\WINDOWS KITS\10\INCLUDE\10.0.16299.0\UM\LIBLOADERAPI.H
C:\PROGRAM FILES (X86)\WINDOWS KITS\10\INCLUDE\10.0.16299.0\UM\SECURITYBASEAPI.H
C:\PROGRAM FILES (X86)\WINDOWS KITS\10\INCLUDE\10.0.16299.0\UM\NAMESPACEAPI.H
C:\PROGRAM FILES (X86)\WINDOWS KITS\10\INCLUDE\10.0.16299.0\UM\SYSTEMTOPOLOGYAPI.H
C:\PROGRAM FILES (X86)\WINDOWS KITS\10\INCLUDE\10.0.16299.0\UM\PROCESSTOPOLOGYAPI.H
C:\PROGRAM FILES (X86)\WINDOWS KITS\10\INCLUDE\10.0.16299.0\UM\SECURITYAPPCONTAINER.H
C:\PROGRAM FILES (X86)\WINDOWS KITS\10\INCLUDE\10.0.16299.0\UM\REALTIMEAPISET.H
C:\PROGRAM FILES (X86)\WINDOWS KITS\10\INCLUDE\10.0.16299.0\SHARED\WINERROR.H
C:\PROGRAM FILES (X86)\WINDOWS KITS\10\INCLUDE\10.0.16299.0\UM\TIMEZONEAPI.H
C:\PROGRAM FILES (X86)\WINDOWS KITS\10\INCLUDE\10.0.16299.0\UM\WINGDI.H
C:\PROGRAM FILES (X86)\WINDOWS KITS\10\INCLUDE\10.0.16299.0\UM\WINUSER.H
C:\PROGRAM FILES (X86)\WINDOWS KITS\10\INCLUDE\10.0.16299.0\SHARED\TVOUT.H
C:\PROGRAM FILES (X86)\WINDOWS KITS\10\INCLUDE\10.0.16299.0\UM\WINNLS.H
C:\PROGRAM FILES (X86)\WINDOWS KITS\10\INCLUDE\10.0.16299.0\UM\DATETIMEAPI.H
C:\PROGRAM FILES (X86)\WINDOWS KITS\10\INCLUDE\10.0.16299.0\UM\STRINGAPISET.H
C:\PROGRAM FILES (X86)\WINDOWS KITS\10\INCLUDE\10.0.16299.0\UM\WINCON.H
C:\PROGRAM FILES (X86)\WINDOWS KITS\10\INCLUDE\10.0.16299.0\UM\CONSOLEAPI.H
C:\PROGRAM FILES (X86)\WINDOWS KITS\10\INCLUDE\10.0.16299.0\UM\WINVER.H
C:\PROGRAM FILES (X86)\WINDOWS KITS\10\INCLUDE\10.0.16299.0\UM\VERRSRC.H
C:\PROGRAM FILES (X86)\WINDOWS KITS\10\INCLUDE\10.0.16299.0\UM\WINREG.H
C:\PROGRAM FILES (X86)\WINDOWS KITS\10\INCLUDE\10.0.16299.0\UM\REASON.H
C:\PROGRAM FILES (X86)\WINDOWS KITS\10\INCLUDE\10.0.16299.0\UM\WINNETWK.H
C:\PROGRAM FILES (X86)\WINDOWS KITS\10\INCLUDE\10.0.16299.0\SHARED\WNNC.H
C:\PROGRAM FILES (X86)\WINDOWS KITS\10\INCLUDE\10.0.16299.0\SHARED\CDERR.H
C:\PROGRAM FILES (X86)\WINDOWS KITS\10\INCLUDE\10.0.16299.0\UM\DDE.H
C:\PROGRAM FILES (X86)\WINDOWS KITS\10\INCLUDE\10.0.16299.0\UM\DDEML.H
C:\PROGRAM FILES (X86)\WINDOWS KITS\10\INCLUDE\10.0.16299.0\UM\DLGS.H
C:\PROGRAM FILES (X86)\WINDOWS KITS\10\INCLUDE\10.0.16299.0\UM\LZEXPAND.H
C:\PROGRAM FILES (X86)\WINDOWS KITS\10\INCLUDE\10.0.16299.0\UM\MMSYSTEM.H
C:\PROGRAM FILES (X86)\WINDOWS KITS\10\INCLUDE\10.0.16299.0\UM\MMSYSCOM.H
C:\PROGRAM FILES (X86)\WINDOWS KITS\10\INCLUDE\10.0.16299.0\UM\MCIAPI.H
C:\PROGRAM FILES (X86)\WINDOWS KITS\10\INCLUDE\10.0.16299.0\UM\MMISCAPI.H
C:\PROGRAM FILES (X86)\WINDOWS KITS\10\INCLUDE\10.0.16299.0\UM\MMISCAPI2.H
C:\PROGRAM FILES (X86)\WINDOWS KITS\10\INCLUDE\10.0.16299.0\UM\PLAYSOUNDAPI.H
C:\PROGRAM FILES (X86)\WINDOWS KITS\10\INCLUDE\10.0.16299.0\UM\MMEAPI.H
C:\PROGRAM FILES (X86)\WINDOWS KITS\10\INCLUDE\10.0.16299.0\UM\TIMEAPI.H
C:\PROGRAM FILES (X86)\WINDOWS KITS\10\INCLUDE\10.0.16299.0\UM\JOYSTICKAPI.H
C:\PROGRAM FILES (X86)\WINDOWS KITS\10\INCLUDE\10.0.16299.0\UM\NB30.H
C:\PROGRAM FILES (X86)\WINDOWS KITS\10\INCLUDE\10.0.16299.0\SHARED\RPC.H
C:\PROGRAM FILES (X86)\WINDOWS KITS\10\INCLUDE\10.0.16299.0\SHARED\RPCDCE.H
C:\PROGRAM FILES (X86)\WINDOWS KITS\10\INCLUDE\10.0.16299.0\SHARED\RPCDCEP.H
C:\PROGRAM FILES (X86)\WINDOWS KITS\10\INCLUDE\10.0.16299.0\UM\RPCNSI.H
C:\PROGRAM FILES (X86)\WINDOWS KITS\10\INCLUDE\10.0.16299.0\SHARED\RPCNTERR.H
C:\PROGRAM FILES (X86)\WINDOWS KITS\10\INCLUDE\10.0.16299.0\SHARED\RPCASYNC.H
C:\PROGRAM FILES (X86)\WINDOWS KITS\10\INCLUDE\10.0.16299.0\UM\SHELLAPI.H
C:\PROGRAM FILES (X86)\WINDOWS KITS\10\INCLUDE\10.0.16299.0\UM\WINPERF.H
C:\PROGRAM FILES (X86)\WINDOWS KITS\10\INCLUDE\10.0.16299.0\UM\WINSOCK.H
C:\PROGRAM FILES (X86)\WINDOWS KITS\10\INCLUDE\10.0.16299.0\SHARED\INADDR.H
C:\PROGRAM FILES (X86)\WINDOWS KITS\10\INCLUDE\10.0.16299.0\UM\WINCRYPT.H
C:\PROGRAM FILES (X86)\WINDOWS KITS\10\INCLUDE\10.0.16299.0\SHARED\BCRYPT.H
C:\PROGRAM FILES (X86)\WINDOWS KITS\10\INCLUDE\10.0.16299.0\UM\NCRYPT.H
C:\PROGRAM FILES (X86)\WINDOWS KITS\10\INCLUDE\10.0.16299.0\UM\DPAPI.H
C:\PROGRAM FILES (X86)\WINDOWS KITS\10\INCLUDE\10.0.16299.0\UM\WINEFS.H
C:\PROGRAM FILES (X86)\WINDOWS KITS\10\INCLUDE\10.0.16299.0\UM\WINSCARD.H
C:\PROGRAM FILES (X86)\WINDOWS KITS\10\INCLUDE\10.0.16299.0\SHARED\WTYPES.H
C:\PROGRAM FILES (X86)\WINDOWS KITS\10\INCLUDE\10.0.16299.0\SHARED\RPCNDR.H
C:\PROGRAM FILES (X86)\WINDOWS KITS\10\INCLUDE\10.0.16299.0\UM\RPCNSIP.H
C:\PROGRAM FILES (X86)\WINDOWS KITS\10\INCLUDE\10.0.16299.0\SHARED\RPCSAL.H
C:\PROGRAM FILES (X86)\WINDOWS KITS\10\INCLUDE\10.0.16299.0\SHARED\WTYPESBASE.H
C:\PROGRAM FILES (X86)\WINDOWS KITS\10\INCLUDE\10.0.16299.0\UM\WINIOCTL.H
C:\PROGRAM FILES (X86)\WINDOWS KITS\10\INCLUDE\10.0.16299.0\SHARED\WINSMCRD.H
C:\PROGRAM FILES (X86)\WINDOWS KITS\10\INCLUDE\10.0.16299.0\UM\WINSPOOL.H
C:\PROGRAM FILES (X86)\WINDOWS KITS\10\INCLUDE\10.0.16299.0\UM\PRSHT.H
C:\PROGRAM FILES (X86)\WINDOWS KITS\10\INCLUDE\10.0.16299.0\UM\OLE2.H
C:\PROGRAM FILES (X86)\WINDOWS KITS\10\INCLUDE\10.0.16299.0\UM\OBJBASE.H
C:\PROGRAM FILES (X86)\WINDOWS KITS\10\INCLUDE\10.0.16299.0\UM\COMBASEAPI.H
C:\PROGRAM FILES (X86)\WINDOWS KITS\10\INCLUDE\10.0.16299.0\UM\UNKNWNBASE.H
C:\PROGRAM FILES (X86)\WINDOWS KITS\10\INCLUDE\10.0.16299.0\UM\OBJIDLBASE.H
C:\PROGRAM FILES (X86)\WINDOWS KITS\10\INCLUDE\10.0.16299.0\UM\CGUID.H
C:\PROGRAM FILES (X86)\WINDOWS KITS\10\INCLUDE\10.0.16299.0\UM\COML2API.H
C:\PROGRAM FILES (X86)\WINDOWS KITS\10\INCLUDE\10.0.16299.0\UM\OBJIDL.H
C:\PROGRAM FILES (X86)\WINDOWS KITS\10\INCLUDE\10.0.16299.0\UM\UNKNWN.H
C:\PROGRAM FILES (X86)\WINDOWS KITS\10\INCLUDE\10.0.16299.0\UM\PROPIDLBASE.H
C:\PROGRAM FILES (X86)\WINDOWS KITS\10\INCLUDE\10.0.16299.0\UM\OAIDL.H
C:\PROGRAM FILES (X86)\WINDOWS KITS\10\INCLUDE\10.0.16299.0\UM\URLMON.H
C:\PROGRAM FILES (X86)\WINDOWS KITS\10\INCLUDE\10.0.16299.0\UM\OLEIDL.H
C:\PROGRAM FILES (X86)\WINDOWS KITS\10\INCLUDE\10.0.16299.0\UM\SERVPROV.H
C:\PROGRAM FILES (X86)\WINDOWS KITS\10\INCLUDE\10.0.16299.0\UM\MSXML.H
C:\PROGRAM FILES (X86)\WINDOWS KITS\10\INCLUDE\10.0.16299.0\UM\PROPIDL.H
C:\PROGRAM FILES (X86)\WINDOWS KITS\10\INCLUDE\10.0.16299.0\UM\OLEAUTO.H
C:\PROGRAM FILES (X86)\WINDOWS KITS\10\INCLUDE\10.0.16299.0\UM\COMMDLG.H
C:\PROGRAM FILES (X86)\WINDOWS KITS\10\INCLUDE\10.0.16299.0\SHARED\STRALIGN.H
C:\PROGRAM FILES (X86)\WINDOWS KITS\10\INCLUDE\10.0.16299.0\UM\WINSVC.H
C:\PROGRAM FILES (X86)\WINDOWS KITS\10\INCLUDE\10.0.16299.0\UM\MCX.H
C:\PROGRAM FILES (X86)\WINDOWS KITS\10\INCLUDE\10.0.16299.0\UM\IMM.H
C:\PROGRAM FILES (X86)\WINDOWS KITS\10\INCLUDE\10.0.16299.0\UM\IME_CMODES.H
C:\USERS\USER\SOURCE\REPOS\PRACTICUM_SHOOTER\PRACTICUM_SHOOTER\PRAC_USB_DEVICE.HPP
C:\PROGRAM FILES (X86)\MICROSOFT VISUAL STUDIO\2017\COMMUNITY\VC\TOOLS\MSVC\14.11.25503\INCLUDE\ATOMIC
C:\PROGRAM FILES (X86)\MICROSOFT VISUAL STUDIO\2017\COMMUNITY\VC\TOOLS\MSVC\14.11.25503\INCLUDE\XATOMIC.H
C:\PROGRAM FILES (X86)\MICROSOFT VISUAL STUDIO\2017\COMMUNITY\VC\TOOLS\MSVC\14.11.25503\INCLUDE\XXATOMIC
C:\PROGRAM FILES (X86)\MICROSOFT VISUAL STUDIO\2017\COMMUNITY\VC\TOOLS\MSVC\14.11.25503\INCLUDE\THREAD
C:\PROGRAM FILES (X86)\MICROSOFT VISUAL STUDIO\2017\COMMUNITY\VC\TOOLS\MSVC\14.11.25503\INCLUDE\FUNCTIONAL
C:\PROGRAM FILES (X86)\MICROSOFT VISUAL STUDIO\2017\COMMUNITY\VC\TOOLS\MSVC\14.11.25503\INCLUDE\TUPLE
C:\PROGRAM FILES (X86)\MICROSOFT VISUAL STUDIO\2017\COMMUNITY\VC\TOOLS\MSVC\14.11.25503\INCLUDE\XFUNCTIONAL
C:\PROGRAM FILES (X86)\MICROSOFT VISUAL STUDIO\2017\COMMUNITY\VC\TOOLS\MSVC\14.11.25503\INCLUDE\CHRONO
C:\PROGRAM FILES (X86)\MICROSOFT VISUAL STUDIO\2017\COMMUNITY\VC\TOOLS\MSVC\14.11.25503\INCLUDE\RATIO
C:\PROGRAM FILES (X86)\MICROSOFT VISUAL STUDIO\2017\COMMUNITY\VC\TOOLS\MSVC\14.11.25503\INCLUDE\THR\XTIMEC.H
C:\PROGRAM FILES (X86)\MICROSOFT VISUAL STUDIO\2017\COMMUNITY\VC\TOOLS\MSVC\14.11.25503\INCLUDE\THR\XTHRCOMMON.H
C:\PROGRAM FILES (X86)\MICROSOFT VISUAL STUDIO\2017\COMMUNITY\VC\TOOLS\MSVC\14.11.25503\INCLUDE\MEMORY
C:\PROGRAM FILES (X86)\MICROSOFT VISUAL STUDIO\2017\COMMUNITY\VC\TOOLS\MSVC\14.11.25503\INCLUDE\THR\XTHREAD
C:\PROGRAM FILES (X86)\MICROSOFT VISUAL STUDIO\2017\COMMUNITY\VC\TOOLS\MSVC\14.11.25503\INCLUDE\THR\XTIME
C:\PROGRAM FILES (X86)\MICROSOFT VISUAL STUDIO\2017\COMMUNITY\VC\TOOLS\MSVC\14.11.25503\INCLUDE\THR\XTHREADS.H
C:\PROGRAM FILES (X86)\MICROSOFT VISUAL STUDIO\2017\COMMUNITY\VC\TOOLS\MSVC\14.11.25503\INCLUDE\MUTEX
C:\PROGRAM FILES (X86)\MICROSOFT VISUAL STUDIO\2017\COMMUNITY\VC\TOOLS\MSVC\14.11.25503\INCLUDE\CONDITION_VARIABLE
C:\USERS\USER\SOURCE\REPOS\PRACTICUM_SHOOTER\PRACTICUM_SHOOTER\CROSSHAIR.HPP
C:\USERS\USER\SOURCE\REPOS\PRACTICUM_SHOOTER\PRACTICUM_SHOOTER\BASE.HPP
C:\USERS\USER\SOURCE\REPOS\PRACTICUM_SHOOTER\PRACTICUM_SHOOTER\TARGET.HPP
^C:\USERS\USER\SOURCE\REPOS\PRACTICUM_SHOOTER\PRACTICUM_SHOOTER\CROSSHAIR.CPP
C:\PROGRAM FILES (X86)\MICROSOFT VISUAL STUDIO\2017\COMMUNITY\VC\TOOLS\MSVC\14.11.25503\INCLUDE\CSTDIO
C:\PROGRAM FILES (X86)\MICROSOFT VISUAL STUDIO\2017\COMMUNITY\VC\TOOLS\MSVC\14.11.25503\INCLUDE\YVALS.H
C:\PROGRAM FILES (X86)\MICROSOFT VISUAL STUDIO\2017\COMMUNITY\VC\TOOLS\MSVC\14.11.25503\INCLUDE\XKEYCHECK.H
C:\PROGRAM FILES (X86)\MICROSOFT VISUAL STUDIO\2017\COMMUNITY\VC\TOOLS\MSVC\14.11.25503\INCLUDE\CRTDEFS.H
C:\PROGRAM FILES (X86)\MICROSOFT VISUAL STUDIO\2017\COMMUNITY\VC\TOOLS\MSVC\14.11.25503\INCLUDE\VCRUNTIME.H
C:\PROGRAM FILES (X86)\MICROSOFT VISUAL STUDIO\2017\COMMUNITY\VC\TOOLS\MSVC\14.11.25503\INCLUDE\SAL.H
C:\PROGRAM FILES (X86)\MICROSOFT VISUAL STUDIO\2017\COMMUNITY\VC\TOOLS\MSVC\14.11.25503\INCLUDE\CONCURRENCYSAL.H
C:\PROGRAM FILES (X86)\MICROSOFT VISUAL STUDIO\2017\COMMUNITY\VC\TOOLS\MSVC\14.11.25503\INCLUDE\VADEFS.H
C:\PROGRAM FILES (X86)\WINDOWS KITS\10\INCLUDE\10.0.16299.0\UCRT\CORECRT.H
C:\PROGRAM FILES (X86)\MICROSOFT VISUAL STUDIO\2017\COMMUNITY\VC\TOOLS\MSVC\14.11.25503\INCLUDE\USE_ANSI.H
C:\PROGRAM FILES (X86)\WINDOWS KITS\10\INCLUDE\10.0.16299.0\UCRT\STDIO.H
C:\PROGRAM FILES (X86)\WINDOWS KITS\10\INCLUDE\10.0.16299.0\UCRT\CORECRT_WSTDIO.H
C:\PROGRAM FILES (X86)\WINDOWS KITS\10\INCLUDE\10.0.16299.0\UCRT\CORECRT_STDIO_CONFIG.H
C:\USERS\USER\SOURCE\REPOS\PRACTICUM_SHOOTER\PRACTICUM_SHOOTER\CROSSHAIR.HPP
C:\USERS\USER\SOURCE\REPOS\PRACTICUM_SHOOTER\PACKAGES\ALLEGRO.5.2.3.1\BUILD\NATIVE\INCLUDE\ALLEGRO5\ALLEGRO.H
C:\USERS\USER\SOURCE\REPOS\PRACTICUM_SHOOTER\PACKAGES\ALLEGRO.5.2.3.1\BUILD\NATIVE\INCLUDE\ALLEGRO5\BASE.H
C:\PROGRAM FILES (X86)\WINDOWS KITS\10\INCLUDE\10.0.16299.0\UCRT\ERRNO.H
C:\PROGRAM FILES (X86)\MICROSOFT VISUAL STUDIO\2017\COMMUNITY\VC\TOOLS\MSVC\14.11.25503\INCLUDE\LIMITS.H
C:\PROGRAM FILES (X86)\MICROSOFT VISUAL STUDIO\2017\COMMUNITY\VC\TOOLS\MSVC\14.11.25503\INCLUDE\STDARG.H
C:\PROGRAM FILES (X86)\WINDOWS KITS\10\INCLUDE\10.0.16299.0\UCRT\STDDEF.H
C:\PROGRAM FILES (X86)\WINDOWS KITS\10\INCLUDE\10.0.16299.0\UCRT\STDLIB.H
C:\PROGRAM FILES (X86)\WINDOWS KITS\10\INCLUDE\10.0.16299.0\UCRT\CORECRT_MALLOC.H
C:\PROGRAM FILES (X86)\WINDOWS KITS\10\INCLUDE\10.0.16299.0\UCRT\CORECRT_SEARCH.H
C:\PROGRAM FILES (X86)\WINDOWS KITS\10\INCLUDE\10.0.16299.0\UCRT\CORECRT_WSTDLIB.H
C:\PROGRAM FILES (X86)\WINDOWS KITS\10\INCLUDE\10.0.16299.0\UCRT\TIME.H
C:\PROGRAM FILES (X86)\WINDOWS KITS\10\INCLUDE\10.0.16299.0\UCRT\CORECRT_WTIME.H
C:\PROGRAM FILES (X86)\WINDOWS KITS\10\INCLUDE\10.0.16299.0\UCRT\STRING.H
C:\PROGRAM FILES (X86)\WINDOWS KITS\10\INCLUDE\10.0.16299.0\UCRT\CORECRT_MEMORY.H
C:\PROGRAM FILES (X86)\WINDOWS KITS\10\INCLUDE\10.0.16299.0\UCRT\CORECRT_MEMCPY_S.H
C:\PROGRAM FILES (X86)\MICROSOFT VISUAL STUDIO\2017\COMMUNITY\VC\TOOLS\MSVC\14.11.25503\INCLUDE\VCRUNTIME_STRING.H
C:\PROGRAM FILES (X86)\WINDOWS KITS\10\INCLUDE\10.0.16299.0\UCRT\CORECRT_WSTRING.H
C:\PROGRAM FILES (X86)\WINDOWS KITS\10\INCLUDE\10.0.16299.0\UCRT\SYS\TYPES.H
C:\USERS\USER\SOURCE\REPOS\PRACTICUM_SHOOTER\PACKAGES\ALLEGRO.5.2.3.1\BUILD\NATIVE\INCLUDE\ALLEGRO5\INTERNAL\ALCONFIG.H
C:\USERS\USER\SOURCE\REPOS\PRACTICUM_SHOOTER\PACKAGES\ALLEGRO.5.2.3.1\BUILD\NATIVE\INCLUDE\ALLEGRO5\PLATFORM\ALPLATF.H
C:\USERS\USER\SOURCE\REPOS\PRACTICUM_SHOOTER\PACKAGES\ALLEGRO.5.2.3.1\BUILD\NATIVE\INCLUDE\ALLEGRO5\PLATFORM\ALMSVC.H
C:\PROGRAM FILES (X86)\WINDOWS KITS\10\INCLUDE\10.0.16299.0\UCRT\IO.H
C:\PROGRAM FILES (X86)\WINDOWS KITS\10\INCLUDE\10.0.16299.0\UCRT\CORECRT_IO.H
C:\PROGRAM FILES (X86)\WINDOWS KITS\10\INCLUDE\10.0.16299.0\UCRT\CORECRT_SHARE.H
C:\PROGRAM FILES (X86)\WINDOWS KITS\10\INCLUDE\10.0.16299.0\UCRT\CORECRT_WIO.H
C:\PROGRAM FILES (X86)\WINDOWS KITS\10\INCLUDE\10.0.16299.0\UCRT\FCNTL.H
C:\PROGRAM FILES (X86)\WINDOWS KITS\10\INCLUDE\10.0.16299.0\UCRT\DIRECT.H
C:\PROGRAM FILES (X86)\WINDOWS KITS\10\INCLUDE\10.0.16299.0\UCRT\CORECRT_WDIRECT.H
C:\PROGRAM FILES (X86)\WINDOWS KITS\10\INCLUDE\10.0.16299.0\UCRT\MALLOC.H
C:\USERS\USER\SOURCE\REPOS\PRACTICUM_SHOOTER\PACKAGES\ALLEGRO.5.2.3.1\BUILD\NATIVE\INCLUDE\ALLEGRO5\PLATFORM\ASTDINT.H
C:\PROGRAM FILES (X86)\WINDOWS KITS\10\INCLUDE\10.0.16299.0\UCRT\INTTYPES.H
C:\PROGRAM FILES (X86)\MICROSOFT VISUAL STUDIO\2017\COMMUNITY\VC\TOOLS\MSVC\14.11.25503\INCLUDE\STDINT.H
C:\USERS\USER\SOURCE\REPOS\PRACTICUM_SHOOTER\PACKAGES\ALLEGRO.5.2.3.1\BUILD\NATIVE\INCLUDE\ALLEGRO5\PLATFORM\ASTDBOOL.H
C:\USERS\USER\SOURCE\REPOS\PRACTICUM_SHOOTER\PACKAGES\ALLEGRO.5.2.3.1\BUILD\NATIVE\INCLUDE\ALLEGRO5\ALTIME.H
C:\USERS\USER\SOURCE\REPOS\PRACTICUM_SHOOTER\PACKAGES\ALLEGRO.5.2.3.1\BUILD\NATIVE\INCLUDE\ALLEGRO5\BITMAP.H
C:\USERS\USER\SOURCE\REPOS\PRACTICUM_SHOOTER\PACKAGES\ALLEGRO.5.2.3.1\BUILD\NATIVE\INCLUDE\ALLEGRO5\COLOR.H
C:\USERS\USER\SOURCE\REPOS\PRACTICUM_SHOOTER\PACKAGES\ALLEGRO.5.2.3.1\BUILD\NATIVE\INCLUDE\ALLEGRO5\BITMAP_DRAW.H
C:\USERS\USER\SOURCE\REPOS\PRACTICUM_SHOOTER\PACKAGES\ALLEGRO.5.2.3.1\BUILD\NATIVE\INCLUDE\ALLEGRO5\BITMAP_IO.H
C:\USERS\USER\SOURCE\REPOS\PRACTICUM_SHOOTER\PACKAGES\ALLEGRO.5.2.3.1\BUILD\NATIVE\INCLUDE\ALLEGRO5\FILE.H
C:\USERS\USER\SOURCE\REPOS\PRACTICUM_SHOOTER\PACKAGES\ALLEGRO.5.2.3.1\BUILD\NATIVE\INCLUDE\ALLEGRO5\PATH.H
C:\USERS\USER\SOURCE\REPOS\PRACTICUM_SHOOTER\PACKAGES\ALLEGRO.5.2.3.1\BUILD\NATIVE\INCLUDE\ALLEGRO5\UTF8.H
C:\USERS\USER\SOURCE\REPOS\PRACTICUM_SHOOTER\PACKAGES\ALLEGRO.5.2.3.1\BUILD\NATIVE\INCLUDE\ALLEGRO5\BITMAP_LOCK.H
C:\USERS\USER\SOURCE\REPOS\PRACTICUM_SHOOTER\PACKAGES\ALLEGRO.5.2.3.1\BUILD\NATIVE\INCLUDE\ALLEGRO5\BLENDER.H
C:\USERS\USER\SOURCE\REPOS\PRACTICUM_SHOOTER\PACKAGES\ALLEGRO.5.2.3.1\BUILD\NATIVE\INCLUDE\ALLEGRO5\CLIPBOARD.H
C:\USERS\USER\SOURCE\REPOS\PRACTICUM_SHOOTER\PACKAGES\ALLEGRO.5.2.3.1\BUILD\NATIVE\INCLUDE\ALLEGRO5\DISPLAY.H
C:\USERS\USER\SOURCE\REPOS\PRACTICUM_SHOOTER\PACKAGES\ALLEGRO.5.2.3.1\BUILD\NATIVE\INCLUDE\ALLEGRO5\EVENTS.H
C:\USERS\USER\SOURCE\REPOS\PRACTICUM_SHOOTER\PACKAGES\ALLEGRO.5.2.3.1\BUILD\NATIVE\INCLUDE\ALLEGRO5\CONFIG.H
C:\USERS\USER\SOURCE\REPOS\PRACTICUM_SHOOTER\PACKAGES\ALLEGRO.5.2.3.1\BUILD\NATIVE\INCLUDE\ALLEGRO5\CPU.H
C:\USERS\USER\SOURCE\REPOS\PRACTICUM_SHOOTER\PACKAGES\ALLEGRO.5.2.3.1\BUILD\NATIVE\INCLUDE\ALLEGRO5\DEBUG.H
C:\PROGRAM FILES (X86)\WINDOWS KITS\10\INCLUDE\10.0.16299.0\UCRT\ASSERT.H
C:\USERS\USER\SOURCE\REPOS\PRACTICUM_SHOOTER\PACKAGES\ALLEGRO.5.2.3.1\BUILD\NATIVE\INCLUDE\ALLEGRO5\DRAWING.H
C:\USERS\USER\SOURCE\REPOS\PRACTICUM_SHOOTER\PACKAGES\ALLEGRO.5.2.3.1\BUILD\NATIVE\INCLUDE\ALLEGRO5\ERROR.H
C:\USERS\USER\SOURCE\REPOS\PRACTICUM_SHOOTER\PACKAGES\ALLEGRO.5.2.3.1\BUILD\NATIVE\INCLUDE\ALLEGRO5\FIXED.H
C:\USERS\USER\SOURCE\REPOS\PRACTICUM_SHOOTER\PACKAGES\ALLEGRO.5.2.3.1\BUILD\NATIVE\INCLUDE\ALLEGRO5\FMATHS.H
C:\USERS\USER\SOURCE\REPOS\PRACTICUM_SHOOTER\PACKAGES\ALLEGRO.5.2.3.1\BUILD\NATIVE\INCLUDE\ALLEGRO5\INLINE\FMATHS.INL
C:\USERS\USER\SOURCE\REPOS\PRACTICUM_SHOOTER\PACKAGES\ALLEGRO.5.2.3.1\BUILD\NATIVE\INCLUDE\ALLEGRO5\FSHOOK.H
C:\USERS\USER\SOURCE\REPOS\PRACTICUM_SHOOTER\PACKAGES\ALLEGRO.5.2.3.1\BUILD\NATIVE\INCLUDE\ALLEGRO5\FULLSCREEN_MODE.H
C:\USERS\USER\SOURCE\REPOS\PRACTICUM_SHOOTER\PACKAGES\ALLEGRO.5.2.3.1\BUILD\NATIVE\INCLUDE\ALLEGRO5\HAPTIC.H
C:\USERS\USER\SOURCE\REPOS\PRACTICUM_SHOOTER\PACKAGES\ALLEGRO.5.2.3.1\BUILD\NATIVE\INCLUDE\ALLEGRO5\JOYSTICK.H
C:\USERS\USER\SOURCE\REPOS\PRACTICUM_SHOOTER\PACKAGES\ALLEGRO.5.2.3.1\BUILD\NATIVE\INCLUDE\ALLEGRO5\KEYBOARD.H
C:\USERS\USER\SOURCE\REPOS\PRACTICUM_SHOOTER\PACKAGES\ALLEGRO.5.2.3.1\BUILD\NATIVE\INCLUDE\ALLEGRO5\KEYCODES.H
C:\USERS\USER\SOURCE\REPOS\PRACTICUM_SHOOTER\PACKAGES\ALLEGRO.5.2.3.1\BUILD\NATIVE\INCLUDE\ALLEGRO5\MOUSE.H
C:\USERS\USER\SOURCE\REPOS\PRACTICUM_SHOOTER\PACKAGES\ALLEGRO.5.2.3.1\BUILD\NATIVE\INCLUDE\ALLEGRO5\TOUCH_INPUT.H
C:\USERS\USER\SOURCE\REPOS\PRACTICUM_SHOOTER\PACKAGES\ALLEGRO.5.2.3.1\BUILD\NATIVE\INCLUDE\ALLEGRO5\MEMORY.H
C:\USERS\USER\SOURCE\REPOS\PRACTICUM_SHOOTER\PACKAGES\ALLEGRO.5.2.3.1\BUILD\NATIVE\INCLUDE\ALLEGRO5\MONITOR.H
C:\USERS\USER\SOURCE\REPOS\PRACTICUM_SHOOTER\PACKAGES\ALLEGRO.5.2.3.1\BUILD\NATIVE\INCLUDE\ALLEGRO5\MOUSE_CURSOR.H
C:\USERS\USER\SOURCE\REPOS\PRACTICUM_SHOOTER\PACKAGES\ALLEGRO.5.2.3.1\BUILD\NATIVE\INCLUDE\ALLEGRO5\RENDER_STATE.H
C:\USERS\USER\SOURCE\REPOS\PRACTICUM_SHOOTER\PACKAGES\ALLEGRO.5.2.3.1\BUILD\NATIVE\INCLUDE\ALLEGRO5\SHADER.H
C:\USERS\USER\SOURCE\REPOS\PRACTICUM_SHOOTER\PACKAGES\ALLEGRO.5.2.3.1\BUILD\NATIVE\INCLUDE\ALLEGRO5\TRANSFORMATIONS.H
C:\USERS\USER\SOURCE\REPOS\PRACTICUM_SHOOTER\PACKAGES\ALLEGRO.5.2.3.1\BUILD\NATIVE\INCLUDE\ALLEGRO5\SYSTEM.H
C:\USERS\USER\SOURCE\REPOS\PRACTICUM_SHOOTER\PACKAGES\ALLEGRO.5.2.3.1\BUILD\NATIVE\INCLUDE\ALLEGRO5\THREADS.H
C:\USERS\USER\SOURCE\REPOS\PRACTICUM_SHOOTER\PACKAGES\ALLEGRO.5.2.3.1\BUILD\NATIVE\INCLUDE\ALLEGRO5\TIMER.H
C:\USERS\USER\SOURCE\REPOS\PRACTICUM_SHOOTER\PACKAGES\ALLEGRO.5.2.3.1\BUILD\NATIVE\INCLUDE\ALLEGRO5\TLS.H
C:\USERS\USER\SOURCE\REPOS\PRACTICUM_SHOOTER\PACKAGES\ALLEGRO.5.2.3.1\BUILD\NATIVE\INCLUDE\ALLEGRO5\ALCOMPAT.H
C:\USERS\USER\SOURCE\REPOS\PRACTICUM_SHOOTER\PACKAGES\ALLEGRO.5.2.3.1\BUILD\NATIVE\INCLUDE\ALLEGRO5\PLATFORM\ALWIN.H
C:\USERS\USER\SOURCE\REPOS\PRACTICUM_SHOOTER\PACKAGES\ALLEGRO.5.2.3.1\BUILD\NATIVE\INCLUDE\ALLEGRO5\ALLEGRO_IMAGE.H
C:\USERS\USER\SOURCE\REPOS\PRACTICUM_SHOOTER\PRACTICUM_SHOOTER\BASE.HPP
^C:\USERS\USER\SOURCE\REPOS\PRACTICUM_SHOOTER\PRACTICUM_SHOOTER\CALCULATOR2.CPP
C:\USERS\USER\SOURCE\REPOS\PRACTICUM_SHOOTER\PRACTICUM_SHOOTER\CALCULATOR_2.HPP
C:\PROGRAM FILES (X86)\MICROSOFT VISUAL STUDIO\2017\COMMUNITY\VC\TOOLS\MSVC\14.11.25503\INCLUDE\CMATH
C:\PROGRAM FILES (X86)\MICROSOFT VISUAL STUDIO\2017\COMMUNITY\VC\TOOLS\MSVC\14.11.25503\INCLUDE\CSTDLIB
C:\PROGRAM FILES (X86)\MICROSOFT VISUAL STUDIO\2017\COMMUNITY\VC\TOOLS\MSVC\14.11.25503\INCLUDE\YVALS.H
C:\PROGRAM FILES (X86)\MICROSOFT VISUAL STUDIO\2017\COMMUNITY\VC\TOOLS\MSVC\14.11.25503\INCLUDE\XKEYCHECK.H
C:\PROGRAM FILES (X86)\MICROSOFT VISUAL STUDIO\2017\COMMUNITY\VC\TOOLS\MSVC\14.11.25503\INCLUDE\CRTDEFS.H
C:\PROGRAM FILES (X86)\MICROSOFT VISUAL STUDIO\2017\COMMUNITY\VC\TOOLS\MSVC\14.11.25503\INCLUDE\VCRUNTIME.H
C:\PROGRAM FILES (X86)\MICROSOFT VISUAL STUDIO\2017\COMMUNITY\VC\TOOLS\MSVC\14.11.25503\INCLUDE\SAL.H
C:\PROGRAM FILES (X86)\MICROSOFT VISUAL STUDIO\2017\COMMUNITY\VC\TOOLS\MSVC\14.11.25503\INCLUDE\CONCURRENCYSAL.H
C:\PROGRAM FILES (X86)\MICROSOFT VISUAL STUDIO\2017\COMMUNITY\VC\TOOLS\MSVC\14.11.25503\INCLUDE\VADEFS.H
C:\PROGRAM FILES (X86)\WINDOWS KITS\10\INCLUDE\10.0.16299.0\UCRT\CORECRT.H
C:\PROGRAM FILES (X86)\MICROSOFT VISUAL STUDIO\2017\COMMUNITY\VC\TOOLS\MSVC\14.11.25503\INCLUDE\USE_ANSI.H
C:\PROGRAM FILES (X86)\WINDOWS KITS\10\INCLUDE\10.0.16299.0\UCRT\STDLIB.H
C:\PROGRAM FILES (X86)\WINDOWS KITS\10\INCLUDE\10.0.16299.0\UCRT\CORECRT_MALLOC.H
C:\PROGRAM FILES (X86)\WINDOWS KITS\10\INCLUDE\10.0.16299.0\UCRT\CORECRT_SEARCH.H
C:\PROGRAM FILES (X86)\WINDOWS KITS\10\INCLUDE\10.0.16299.0\UCRT\STDDEF.H
C:\PROGRAM FILES (X86)\WINDOWS KITS\10\INCLUDE\10.0.16299.0\UCRT\CORECRT_WSTDLIB.H
C:\PROGRAM FILES (X86)\MICROSOFT VISUAL STUDIO\2017\COMMUNITY\VC\TOOLS\MSVC\14.11.25503\INCLUDE\LIMITS.H
C:\PROGRAM FILES (X86)\WINDOWS KITS\10\INCLUDE\10.0.16299.0\UCRT\MATH.H
C:\PROGRAM FILES (X86)\WINDOWS KITS\10\INCLUDE\10.0.16299.0\UCRT\CORECRT_MATH.H
C:\PROGRAM FILES (X86)\MICROSOFT VISUAL STUDIO\2017\COMMUNITY\VC\TOOLS\MSVC\14.11.25503\INCLUDE\XTGMATH.H
C:\PROGRAM FILES (X86)\MICROSOFT VISUAL STUDIO\2017\COMMUNITY\VC\TOOLS\MSVC\14.11.25503\INCLUDE\XTR1COMMON
^C:\USERS\USER\SOURCE\REPOS\PRACTICUM_SHOOTER\PRACTICUM_SHOOTER\CALCULATOR.CPP
C:\USERS\USER\SOURCE\REPOS\PRACTICUM_SHOOTER\PRACTICUM_SHOOTER\CALCULATOR.HPP
C:\PROGRAM FILES (X86)\MICROSOFT VISUAL STUDIO\2017\COMMUNITY\VC\TOOLS\MSVC\14.11.25503\INCLUDE\CMATH
C:\PROGRAM FILES (X86)\MICROSOFT VISUAL STUDIO\2017\COMMUNITY\VC\TOOLS\MSVC\14.11.25503\INCLUDE\CSTDLIB
C:\PROGRAM FILES (X86)\MICROSOFT VISUAL STUDIO\2017\COMMUNITY\VC\TOOLS\MSVC\14.11.25503\INCLUDE\YVALS.H
C:\PROGRAM FILES (X86)\MICROSOFT VISUAL STUDIO\2017\COMMUNITY\VC\TOOLS\MSVC\14.11.25503\INCLUDE\XKEYCHECK.H
C:\PROGRAM FILES (X86)\MICROSOFT VISUAL STUDIO\2017\COMMUNITY\VC\TOOLS\MSVC\14.11.25503\INCLUDE\CRTDEFS.H
C:\PROGRAM FILES (X86)\MICROSOFT VISUAL STUDIO\2017\COMMUNITY\VC\TOOLS\MSVC\14.11.25503\INCLUDE\VCRUNTIME.H
C:\PROGRAM FILES (X86)\MICROSOFT VISUAL STUDIO\2017\COMMUNITY\VC\TOOLS\MSVC\14.11.25503\INCLUDE\SAL.H
C:\PROGRAM FILES (X86)\MICROSOFT VISUAL STUDIO\2017\COMMUNITY\VC\TOOLS\MSVC\14.11.25503\INCLUDE\CONCURRENCYSAL.H
C:\PROGRAM FILES (X86)\MICROSOFT VISUAL STUDIO\2017\COMMUNITY\VC\TOOLS\MSVC\14.11.25503\INCLUDE\VADEFS.H
C:\PROGRAM FILES (X86)\WINDOWS KITS\10\INCLUDE\10.0.16299.0\UCRT\CORECRT.H
C:\PROGRAM FILES (X86)\MICROSOFT VISUAL STUDIO\2017\COMMUNITY\VC\TOOLS\MSVC\14.11.25503\INCLUDE\USE_ANSI.H
C:\PROGRAM FILES (X86)\WINDOWS KITS\10\INCLUDE\10.0.16299.0\UCRT\STDLIB.H
C:\PROGRAM FILES (X86)\WINDOWS KITS\10\INCLUDE\10.0.16299.0\UCRT\CORECRT_MALLOC.H
C:\PROGRAM FILES (X86)\WINDOWS KITS\10\INCLUDE\10.0.16299.0\UCRT\CORECRT_SEARCH.H
C:\PROGRAM FILES (X86)\WINDOWS KITS\10\INCLUDE\10.0.16299.0\UCRT\STDDEF.H
C:\PROGRAM FILES (X86)\WINDOWS KITS\10\INCLUDE\10.0.16299.0\UCRT\CORECRT_WSTDLIB.H
C:\PROGRAM FILES (X86)\MICROSOFT VISUAL STUDIO\2017\COMMUNITY\VC\TOOLS\MSVC\14.11.25503\INCLUDE\LIMITS.H
C:\PROGRAM FILES (X86)\WINDOWS KITS\10\INCLUDE\10.0.16299.0\UCRT\MATH.H
C:\PROGRAM FILES (X86)\WINDOWS KITS\10\INCLUDE\10.0.16299.0\UCRT\CORECRT_MATH.H
C:\PROGRAM FILES (X86)\MICROSOFT VISUAL STUDIO\2017\COMMUNITY\VC\TOOLS\MSVC\14.11.25503\INCLUDE\XTGMATH.H
C:\PROGRAM FILES (X86)\MICROSOFT VISUAL STUDIO\2017\COMMUNITY\VC\TOOLS\MSVC\14.11.25503\INCLUDE\XTR1COMMON
C:\PROGRAM FILES (X86)\MICROSOFT VISUAL STUDIO\2017\COMMUNITY\VC\TOOLS\MSVC\14.11.25503\INCLUDE\CSTDIO
C:\PROGRAM FILES (X86)\WINDOWS KITS\10\INCLUDE\10.0.16299.0\UCRT\STDIO.H
C:\PROGRAM FILES (X86)\WINDOWS KITS\10\INCLUDE\10.0.16299.0\UCRT\CORECRT_WSTDIO.H
C:\PROGRAM FILES (X86)\WINDOWS KITS\10\INCLUDE\10.0.16299.0\UCRT\CORECRT_STDIO_CONFIG.H
^C:\USERS\USER\SOURCE\REPOS\PRACTICUM_SHOOTER\PRACTICUM_SHOOTER\BASE.CPP
C:\USERS\USER\SOURCE\REPOS\PRACTICUM_SHOOTER\PRACTICUM_SHOOTER\BASE.HPP
